[2023-02-19T19:00:08.203+0900][48970ms] GC(7995) Pause Cleanup 235M->235M(270M) 0.392ms
[2023-02-19T19:00:08.203+0900][48970ms] GC(7995) User=0.00s Sys=0.00s Real=0.00s
[2023-02-19T19:00:08.203+0900][48970ms] GC(7995) Concurrent Cleanup for Next Mark
[2023-02-19T19:00:08.203+0900][48970ms] GC(7995) Concurrent Cleanup for Next Mark 0.125ms
[2023-02-19T19:00:08.204+0900][48971ms] GC(7995) Concurrent Cycle 4.694ms
[2023-02-19T19:00:08.206+0900][48973ms] GC(7996) Pause Young (Concurrent Start) (G1 Humongous Allocation)
[2023-02-19T19:00:08.206+0900][48973ms] GC(7996) Using 6 workers of 10 for evacuation
[2023-02-19T19:00:08.206+0900][48973ms] GC(7996)   Pre Evacuate Collection Set: 0.1ms
[2023-02-19T19:00:08.206+0900][48973ms] GC(7996)   Evacuate Collection Set: 0.3ms
[2023-02-19T19:00:08.206+0900][48973ms] GC(7996)   Post Evacuate Collection Set: 0.1ms
[2023-02-19T19:00:08.206+0900][48973ms] GC(7996)   Other: 0.1ms
[2023-02-19T19:00:08.206+0900][48973ms] GC(7996) Eden regions: 0->0(12)
[2023-02-19T19:00:08.206+0900][48973ms] GC(7996) Survivor regions: 1->1(2)
[2023-02-19T19:00:08.206+0900][48973ms] GC(7996) Old regions: 6->6
[2023-02-19T19:00:08.206+0900][48973ms] GC(7996) Humongous regions: 232->232
[2023-02-19T19:00:08.206+0900][48973ms] GC(7996) Metaspace: 8206K(9088K)->8206K(9088K) NonClass: 7386K(7936K)->7386K(7936K) Class: 820K(1152K)->820K(1152K)
[2023-02-19T19:00:08.206+0900][48973ms] GC(7996) Pause Young (Concurrent Start) (G1 Humongous Allocation) 235M->235M(270M) 0.619ms
[2023-02-19T19:00:08.206+0900][48973ms] GC(7996) User=0.00s Sys=0.00s Real=0.00s
[2023-02-19T19:00:08.206+0900][48973ms] GC(7997) Concurrent Cycle
[2023-02-19T19:00:08.206+0900][48973ms] GC(7997) Concurrent Clear Claimed Marks
[2023-02-19T19:00:08.206+0900][48973ms] GC(7997) Concurrent Clear Claimed Marks 0.006ms
[2023-02-19T19:00:08.206+0900][48973ms] GC(7997) Concurrent Scan Root Regions
[2023-02-19T19:00:08.206+0900][48973ms] GC(7997) Concurrent Scan Root Regions 0.069ms
[2023-02-19T19:00:08.206+0900][48973ms] GC(7997) Concurrent Mark (48.973s)
[2023-02-19T19:00:08.206+0900][48973ms] GC(7997) Concurrent Mark From Roots
[2023-02-19T19:00:08.206+0900][48973ms] GC(7997) Using 3 workers of 3 for marking
[2023-02-19T19:00:08.208+0900][48975ms] GC(7997) Concurrent Mark From Roots 1.799ms
[2023-02-19T19:00:08.208+0900][48975ms] GC(7997) Concurrent Preclean
[2023-02-19T19:00:08.208+0900][48975ms] GC(7997) Concurrent Preclean 0.051ms
[2023-02-19T19:00:08.208+0900][48975ms] GC(7997) Concurrent Mark (48.973s, 48.975s) 1.888ms
[2023-02-19T19:00:08.208+0900][48975ms] GC(7997) Pause Remark
[2023-02-19T19:00:08.209+0900][48976ms] GC(7997) Cleaned string and symbol table, strings: 1812 processed, 0 removed, symbols: 16299 processed, 0 removed
[2023-02-19T19:00:08.209+0900][48976ms] GC(7997) Pause Remark 236M->236M(270M) 0.813ms
[2023-02-19T19:00:08.209+0900][48976ms] GC(7997) User=0.01s Sys=0.00s Real=0.00s
[2023-02-19T19:00:08.209+0900][48976ms] GC(7997) Concurrent Rebuild Remembered Sets
[2023-02-19T19:00:08.210+0900][48977ms] GC(7997) Concurrent Rebuild Remembered Sets 0.896ms
[2023-02-19T19:00:08.210+0900][48977ms] GC(7997) Pause Cleanup
[2023-02-19T19:00:08.210+0900][48977ms] GC(7997) Pause Cleanup 237M->237M(270M) 0.104ms
[2023-02-19T19:00:08.210+0900][48977ms] GC(7997) User=0.00s Sys=0.00s Real=0.00s
[2023-02-19T19:00:08.210+0900][48977ms] GC(7997) Concurrent Cleanup for Next Mark
[2023-02-19T19:00:08.211+0900][48978ms] GC(7997) Concurrent Cleanup for Next Mark 0.131ms
[2023-02-19T19:00:08.211+0900][48978ms] GC(7997) Concurrent Cycle 4.389ms
[2023-02-19T19:00:08.213+0900][48980ms] GC(7998) Pause Young (Concurrent Start) (G1 Humongous Allocation)
[2023-02-19T19:00:08.213+0900][48980ms] GC(7998) Using 6 workers of 10 for evacuation
[2023-02-19T19:00:08.213+0900][48980ms] GC(7998)   Pre Evacuate Collection Set: 0.1ms
[2023-02-19T19:00:08.213+0900][48980ms] GC(7998)   Evacuate Collection Set: 0.4ms
[2023-02-19T19:00:08.213+0900][48980ms] GC(7998)   Post Evacuate Collection Set: 0.1ms
[2023-02-19T19:00:08.213+0900][48980ms] GC(7998)   Other: 0.1ms
[2023-02-19T19:00:08.213+0900][48980ms] GC(7998) Eden regions: 0->0(12)
[2023-02-19T19:00:08.213+0900][48980ms] GC(7998) Survivor regions: 1->1(2)
[2023-02-19T19:00:08.213+0900][48980ms] GC(7998) Old regions: 6->6
[2023-02-19T19:00:08.213+0900][48980ms] GC(7998) Humongous regions: 234->234
[2023-02-19T19:00:08.213+0900][48980ms] GC(7998) Metaspace: 8206K(9088K)->8206K(9088K) NonClass: 7386K(7936K)->7386K(7936K) Class: 820K(1152K)->820K(1152K)
[2023-02-19T19:00:08.213+0900][48980ms] GC(7998) Pause Young (Concurrent Start) (G1 Humongous Allocation) 237M->237M(270M) 0.744ms
[2023-02-19T19:00:08.213+0900][48980ms] GC(7998) User=0.01s Sys=0.00s Real=0.00s
[2023-02-19T19:00:08.214+0900][48981ms] GC(7999) Concurrent Cycle
[2023-02-19T19:00:08.214+0900][48981ms] GC(7999) Concurrent Clear Claimed Marks
[2023-02-19T19:00:08.214+0900][48981ms] GC(7999) Concurrent Clear Claimed Marks 0.006ms
[2023-02-19T19:00:08.214+0900][48981ms] GC(7999) Concurrent Scan Root Regions
[2023-02-19T19:00:08.214+0900][48981ms] GC(7999) Concurrent Scan Root Regions 0.072ms
[2023-02-19T19:00:08.214+0900][48981ms] GC(7999) Concurrent Mark (48.980s)
[2023-02-19T19:00:08.214+0900][48981ms] GC(7999) Concurrent Mark From Roots
[2023-02-19T19:00:08.214+0900][48981ms] GC(7999) Using 3 workers of 3 for marking
[2023-02-19T19:00:08.215+0900][48982ms] GC(7999) Concurrent Mark From Roots 1.782ms
[2023-02-19T19:00:08.215+0900][48982ms] GC(7999) Concurrent Preclean
[2023-02-19T19:00:08.215+0900][48982ms] GC(7999) Concurrent Preclean 0.041ms
[2023-02-19T19:00:08.215+0900][48982ms] GC(7999) Concurrent Mark (48.980s, 48.982s) 1.856ms
[2023-02-19T19:00:08.216+0900][48983ms] GC(7999) Pause Remark
[2023-02-19T19:00:08.216+0900][48983ms] GC(7999) Cleaned string and symbol table, strings: 1812 processed, 0 removed, symbols: 16299 processed, 0 removed
[2023-02-19T19:00:08.216+0900][48983ms] GC(7999) Pause Remark 238M->238M(270M) 0.783ms
[2023-02-19T19:00:08.216+0900][48983ms] GC(7999) User=0.01s Sys=0.00s Real=0.00s
[2023-02-19T19:00:08.216+0900][48983ms] GC(7999) Concurrent Rebuild Remembered Sets
[2023-02-19T19:00:08.217+0900][48984ms] GC(7999) Concurrent Rebuild Remembered Sets 0.885ms
[2023-02-19T19:00:08.217+0900][48984ms] GC(7999) Pause Cleanup
[2023-02-19T19:00:08.218+0900][48985ms] GC(7999) Pause Cleanup 239M->239M(270M) 0.115ms
[2023-02-19T19:00:08.218+0900][48985ms] GC(7999) User=0.00s Sys=0.00s Real=0.00s
[2023-02-19T19:00:08.218+0900][48985ms] GC(7999) Concurrent Cleanup for Next Mark
[2023-02-19T19:00:08.218+0900][48985ms] GC(7999) Concurrent Cleanup for Next Mark 0.128ms
[2023-02-19T19:00:08.218+0900][48985ms] GC(7999) Concurrent Cycle 4.298ms
[2023-02-19T19:00:08.220+0900][48987ms] GC(8000) Pause Young (Concurrent Start) (G1 Humongous Allocation)
[2023-02-19T19:00:08.220+0900][48987ms] GC(8000) Using 6 workers of 10 for evacuation
[2023-02-19T19:00:08.221+0900][48988ms] GC(8000)   Pre Evacuate Collection Set: 0.0ms
[2023-02-19T19:00:08.221+0900][48988ms] GC(8000)   Evacuate Collection Set: 0.4ms
[2023-02-19T19:00:08.221+0900][48988ms] GC(8000)   Post Evacuate Collection Set: 0.1ms
[2023-02-19T19:00:08.221+0900][48988ms] GC(8000)   Other: 0.1ms
[2023-02-19T19:00:08.221+0900][48988ms] GC(8000) Eden regions: 0->0(12)
[2023-02-19T19:00:08.221+0900][48988ms] GC(8000) Survivor regions: 1->1(2)
[2023-02-19T19:00:08.221+0900][48988ms] GC(8000) Old regions: 6->6
[2023-02-19T19:00:08.221+0900][48988ms] GC(8000) Humongous regions: 236->236
[2023-02-19T19:00:08.221+0900][48988ms] GC(8000) Metaspace: 8206K(9088K)->8206K(9088K) NonClass: 7386K(7936K)->7386K(7936K) Class: 820K(1152K)->820K(1152K)
[2023-02-19T19:00:08.221+0900][48988ms] GC(8000) Pause Young (Concurrent Start) (G1 Humongous Allocation) 239M->239M(270M) 0.674ms
[2023-02-19T19:00:08.221+0900][48988ms] GC(8000) User=0.00s Sys=0.00s Real=0.00s
[2023-02-19T19:00:08.221+0900][48988ms] GC(8001) Concurrent Cycle
[2023-02-19T19:00:08.221+0900][48988ms] GC(8001) Concurrent Clear Claimed Marks
[2023-02-19T19:00:08.221+0900][48988ms] GC(8001) Concurrent Clear Claimed Marks 0.006ms
[2023-02-19T19:00:08.221+0900][48988ms] GC(8001) Concurrent Scan Root Regions
[2023-02-19T19:00:08.221+0900][48988ms] GC(8001) Concurrent Scan Root Regions 0.071ms
[2023-02-19T19:00:08.221+0900][48988ms] GC(8001) Concurrent Mark (48.988s)
[2023-02-19T19:00:08.221+0900][48988ms] GC(8001) Concurrent Mark From Roots
[2023-02-19T19:00:08.221+0900][48988ms] GC(8001) Using 3 workers of 3 for marking
[2023-02-19T19:00:08.223+0900][48990ms] GC(8001) Concurrent Mark From Roots 1.788ms
[2023-02-19T19:00:08.223+0900][48990ms] GC(8001) Concurrent Preclean
[2023-02-19T19:00:08.223+0900][48990ms] GC(8001) Concurrent Preclean 0.040ms
[2023-02-19T19:00:08.223+0900][48990ms] GC(8001) Concurrent Mark (48.988s, 48.990s) 1.861ms
[2023-02-19T19:00:08.223+0900][48990ms] GC(8001) Pause Remark
[2023-02-19T19:00:08.224+0900][48991ms] GC(8001) Cleaned string and symbol table, strings: 1812 processed, 0 removed, symbols: 16299 processed, 0 removed
[2023-02-19T19:00:08.224+0900][48991ms] GC(8001) Pause Remark 240M->240M(270M) 0.833ms
[2023-02-19T19:00:08.224+0900][48991ms] GC(8001) User=0.00s Sys=0.00s Real=0.00s
[2023-02-19T19:00:08.224+0900][48991ms] GC(8001) Concurrent Rebuild Remembered Sets
[2023-02-19T19:00:08.225+0900][48992ms] GC(8001) Concurrent Rebuild Remembered Sets 1.213ms
[2023-02-19T19:00:08.225+0900][48992ms] GC(8001) Pause Cleanup
[2023-02-19T19:00:08.225+0900][48992ms] GC(8001) Pause Cleanup 241M->241M(270M) 0.106ms
[2023-02-19T19:00:08.225+0900][48992ms] GC(8001) User=0.00s Sys=0.00s Real=0.00s
[2023-02-19T19:00:08.225+0900][48992ms] GC(8001) Concurrent Cleanup for Next Mark
[2023-02-19T19:00:08.225+0900][48992ms] GC(8001) Concurrent Cleanup for Next Mark 0.120ms
[2023-02-19T19:00:08.225+0900][48992ms] GC(8001) Concurrent Cycle 4.674ms
[2023-02-19T19:00:08.227+0900][48994ms] GC(8002) Pause Young (Concurrent Start) (G1 Humongous Allocation)
[2023-02-19T19:00:08.228+0900][48995ms] GC(8002) Using 6 workers of 10 for evacuation
[2023-02-19T19:00:08.228+0900][48995ms] GC(8002)   Pre Evacuate Collection Set: 0.0ms
[2023-02-19T19:00:08.228+0900][48995ms] GC(8002)   Evacuate Collection Set: 0.3ms
[2023-02-19T19:00:08.228+0900][48995ms] GC(8002)   Post Evacuate Collection Set: 0.1ms
[2023-02-19T19:00:08.228+0900][48995ms] GC(8002)   Other: 0.1ms
[2023-02-19T19:00:08.228+0900][48995ms] GC(8002) Eden regions: 0->0(12)
[2023-02-19T19:00:08.228+0900][48995ms] GC(8002) Survivor regions: 1->1(2)
[2023-02-19T19:00:08.228+0900][48995ms] GC(8002) Old regions: 6->6
[2023-02-19T19:00:08.228+0900][48995ms] GC(8002) Humongous regions: 238->238
[2023-02-19T19:00:08.228+0900][48995ms] GC(8002) Metaspace: 8206K(9088K)->8206K(9088K) NonClass: 7386K(7936K)->7386K(7936K) Class: 820K(1152K)->820K(1152K)
[2023-02-19T19:00:08.228+0900][48995ms] GC(8002) Pause Young (Concurrent Start) (G1 Humongous Allocation) 241M->241M(270M) 0.598ms
[2023-02-19T19:00:08.228+0900][48995ms] GC(8002) User=0.00s Sys=0.00s Real=0.00s
[2023-02-19T19:00:08.228+0900][48995ms] GC(8003) Concurrent Cycle
[2023-02-19T19:00:08.228+0900][48995ms] GC(8003) Concurrent Clear Claimed Marks
[2023-02-19T19:00:08.228+0900][48995ms] GC(8003) Concurrent Clear Claimed Marks 0.007ms
[2023-02-19T19:00:08.228+0900][48995ms] GC(8003) Concurrent Scan Root Regions
[2023-02-19T19:00:08.228+0900][48995ms] GC(8003) Concurrent Scan Root Regions 0.066ms
[2023-02-19T19:00:08.228+0900][48995ms] GC(8003) Concurrent Mark (48.995s)
[2023-02-19T19:00:08.228+0900][48995ms] GC(8003) Concurrent Mark From Roots
[2023-02-19T19:00:08.228+0900][48995ms] GC(8003) Using 3 workers of 3 for marking
[2023-02-19T19:00:08.230+0900][48997ms] GC(8003) Concurrent Mark From Roots 1.917ms
[2023-02-19T19:00:08.230+0900][48997ms] GC(8003) Concurrent Preclean
[2023-02-19T19:00:08.230+0900][48997ms] GC(8003) Concurrent Preclean 0.041ms
[2023-02-19T19:00:08.230+0900][48997ms] GC(8003) Concurrent Mark (48.995s, 48.997s) 2.018ms
[2023-02-19T19:00:08.230+0900][48997ms] GC(8003) Pause Remark
[2023-02-19T19:00:08.231+0900][48998ms] GC(8003) Cleaned string and symbol table, strings: 1812 processed, 0 removed, symbols: 16299 processed, 0 removed
[2023-02-19T19:00:08.231+0900][48998ms] GC(8003) Pause Remark 242M->242M(270M) 0.826ms
[2023-02-19T19:00:08.231+0900][48998ms] GC(8003) User=0.00s Sys=0.00s Real=0.00s
[2023-02-19T19:00:08.231+0900][48998ms] GC(8003) Concurrent Rebuild Remembered Sets
[2023-02-19T19:00:08.232+0900][48999ms] GC(8003) Concurrent Rebuild Remembered Sets 0.871ms
[2023-02-19T19:00:08.232+0900][48999ms] GC(8003) Pause Cleanup
[2023-02-19T19:00:08.232+0900][48999ms] GC(8003) Pause Cleanup 243M->243M(270M) 0.105ms
[2023-02-19T19:00:08.232+0900][48999ms] GC(8003) User=0.00s Sys=0.00s Real=0.00s
[2023-02-19T19:00:08.232+0900][48999ms] GC(8003) Concurrent Cleanup for Next Mark
[2023-02-19T19:00:08.233+0900][49000ms] GC(8003) Concurrent Cleanup for Next Mark 0.120ms
[2023-02-19T19:00:08.233+0900][49000ms] GC(8003) Concurrent Cycle 4.474ms
[2023-02-19T19:00:08.235+0900][49002ms] GC(8004) Pause Young (Concurrent Start) (G1 Humongous Allocation)
[2023-02-19T19:00:08.235+0900][49002ms] GC(8004) Using 6 workers of 10 for evacuation
[2023-02-19T19:00:08.235+0900][49002ms] GC(8004)   Pre Evacuate Collection Set: 0.0ms
[2023-02-19T19:00:08.235+0900][49002ms] GC(8004)   Evacuate Collection Set: 0.3ms
[2023-02-19T19:00:08.235+0900][49002ms] GC(8004)   Post Evacuate Collection Set: 0.1ms
[2023-02-19T19:00:08.235+0900][49002ms] GC(8004)   Other: 0.1ms
[2023-02-19T19:00:08.235+0900][49002ms] GC(8004) Eden regions: 0->0(12)
[2023-02-19T19:00:08.235+0900][49002ms] GC(8004) Survivor regions: 1->1(2)
[2023-02-19T19:00:08.235+0900][49002ms] GC(8004) Old regions: 6->6
[2023-02-19T19:00:08.235+0900][49002ms] GC(8004) Humongous regions: 240->240
[2023-02-19T19:00:08.235+0900][49002ms] GC(8004) Metaspace: 8206K(9088K)->8206K(9088K) NonClass: 7386K(7936K)->7386K(7936K) Class: 820K(1152K)->820K(1152K)
[2023-02-19T19:00:08.235+0900][49002ms] GC(8004) Pause Young (Concurrent Start) (G1 Humongous Allocation) 243M->243M(270M) 0.593ms
[2023-02-19T19:00:08.235+0900][49002ms] GC(8004) User=0.01s Sys=0.00s Real=0.00s
[2023-02-19T19:00:08.235+0900][49002ms] GC(8005) Concurrent Cycle
[2023-02-19T19:00:08.235+0900][49002ms] GC(8005) Concurrent Clear Claimed Marks
[2023-02-19T19:00:08.235+0900][49002ms] GC(8005) Concurrent Clear Claimed Marks 0.007ms
[2023-02-19T19:00:08.235+0900][49002ms] GC(8005) Concurrent Scan Root Regions
[2023-02-19T19:00:08.235+0900][49002ms] GC(8005) Concurrent Scan Root Regions 0.067ms
[2023-02-19T19:00:08.235+0900][49002ms] GC(8005) Concurrent Mark (49.002s)
[2023-02-19T19:00:08.235+0900][49002ms] GC(8005) Concurrent Mark From Roots
[2023-02-19T19:00:08.235+0900][49002ms] GC(8005) Using 3 workers of 3 for marking
[2023-02-19T19:00:08.237+0900][49004ms] GC(8005) Concurrent Mark From Roots 1.838ms
[2023-02-19T19:00:08.237+0900][49004ms] GC(8005) Concurrent Preclean
[2023-02-19T19:00:08.237+0900][49004ms] GC(8005) Concurrent Preclean 0.041ms
[2023-02-19T19:00:08.237+0900][49004ms] GC(8005) Concurrent Mark (49.002s, 49.004s) 1.917ms
[2023-02-19T19:00:08.237+0900][49004ms] GC(8005) Pause Remark
[2023-02-19T19:00:08.238+0900][49005ms] GC(8005) Cleaned string and symbol table, strings: 1812 processed, 0 removed, symbols: 16299 processed, 0 removed
[2023-02-19T19:00:08.238+0900][49005ms] GC(8005) Pause Remark 244M->244M(270M) 0.810ms
[2023-02-19T19:00:08.238+0900][49005ms] GC(8005) User=0.00s Sys=0.01s Real=0.00s
[2023-02-19T19:00:08.238+0900][49005ms] GC(8005) Concurrent Rebuild Remembered Sets
[2023-02-19T19:00:08.239+0900][49006ms] GC(8005) Concurrent Rebuild Remembered Sets 0.881ms
[2023-02-19T19:00:08.239+0900][49006ms] GC(8005) Pause Cleanup
[2023-02-19T19:00:08.239+0900][49006ms] GC(8005) Pause Cleanup 245M->245M(270M) 0.113ms
[2023-02-19T19:00:08.239+0900][49006ms] GC(8005) User=0.00s Sys=0.00s Real=0.00s
[2023-02-19T19:00:08.240+0900][49007ms] GC(8005) Concurrent Cleanup for Next Mark
[2023-02-19T19:00:08.240+0900][49007ms] GC(8005) Concurrent Cleanup for Next Mark 0.136ms
[2023-02-19T19:00:08.240+0900][49007ms] GC(8005) Concurrent Cycle 4.408ms
[2023-02-19T19:00:08.242+0900][49009ms] GC(8006) Pause Young (Concurrent Start) (G1 Humongous Allocation)
[2023-02-19T19:00:08.242+0900][49009ms] GC(8006) Using 6 workers of 10 for evacuation
[2023-02-19T19:00:08.242+0900][49009ms] GC(8006)   Pre Evacuate Collection Set: 0.1ms
[2023-02-19T19:00:08.242+0900][49009ms] GC(8006)   Evacuate Collection Set: 0.3ms
[2023-02-19T19:00:08.242+0900][49009ms] GC(8006)   Post Evacuate Collection Set: 0.1ms
[2023-02-19T19:00:08.242+0900][49009ms] GC(8006)   Other: 0.1ms
[2023-02-19T19:00:08.242+0900][49009ms] GC(8006) Eden regions: 0->0(12)
[2023-02-19T19:00:08.242+0900][49009ms] GC(8006) Survivor regions: 1->1(2)
[2023-02-19T19:00:08.242+0900][49009ms] GC(8006) Old regions: 6->6
[2023-02-19T19:00:08.242+0900][49009ms] GC(8006) Humongous regions: 242->242
[2023-02-19T19:00:08.242+0900][49009ms] GC(8006) Metaspace: 8206K(9088K)->8206K(9088K) NonClass: 7386K(7936K)->7386K(7936K) Class: 820K(1152K)->820K(1152K)
[2023-02-19T19:00:08.242+0900][49009ms] GC(8006) Pause Young (Concurrent Start) (G1 Humongous Allocation) 245M->245M(270M) 0.612ms
[2023-02-19T19:00:08.242+0900][49009ms] GC(8006) User=0.00s Sys=0.00s Real=0.00s
[2023-02-19T19:00:08.242+0900][49009ms] GC(8007) Concurrent Cycle
[2023-02-19T19:00:08.242+0900][49009ms] GC(8007) Concurrent Clear Claimed Marks
[2023-02-19T19:00:08.242+0900][49009ms] GC(8007) Concurrent Clear Claimed Marks 0.006ms
[2023-02-19T19:00:08.242+0900][49009ms] GC(8007) Concurrent Scan Root Regions
[2023-02-19T19:00:08.243+0900][49010ms] GC(8007) Concurrent Scan Root Regions 0.066ms
[2023-02-19T19:00:08.243+0900][49010ms] GC(8007) Concurrent Mark (49.009s)
[2023-02-19T19:00:08.243+0900][49010ms] GC(8007) Concurrent Mark From Roots
[2023-02-19T19:00:08.243+0900][49010ms] GC(8007) Using 3 workers of 3 for marking
[2023-02-19T19:00:08.244+0900][49011ms] GC(8007) Concurrent Mark From Roots 1.829ms
[2023-02-19T19:00:08.244+0900][49011ms] GC(8007) Concurrent Preclean
[2023-02-19T19:00:08.244+0900][49011ms] GC(8007) Concurrent Preclean 0.040ms
[2023-02-19T19:00:08.244+0900][49011ms] GC(8007) Concurrent Mark (49.009s, 49.011s) 1.904ms
[2023-02-19T19:00:08.245+0900][49012ms] GC(8007) Pause Remark
[2023-02-19T19:00:08.245+0900][49012ms] GC(8007) Cleaned string and symbol table, strings: 1812 processed, 0 removed, symbols: 16299 processed, 0 removed
[2023-02-19T19:00:08.245+0900][49012ms] GC(8007) Pause Remark 246M->246M(270M) 0.862ms
[2023-02-19T19:00:08.245+0900][49012ms] GC(8007) User=0.01s Sys=0.00s Real=0.00s
[2023-02-19T19:00:08.246+0900][49013ms] GC(8007) Concurrent Rebuild Remembered Sets
[2023-02-19T19:00:08.246+0900][49013ms] GC(8007) Concurrent Rebuild Remembered Sets 0.875ms
[2023-02-19T19:00:08.247+0900][49014ms] GC(8007) Pause Cleanup
[2023-02-19T19:00:08.247+0900][49014ms] GC(8007) Pause Cleanup 247M->247M(270M) 0.102ms
[2023-02-19T19:00:08.247+0900][49014ms] GC(8007) User=0.00s Sys=0.00s Real=0.00s
[2023-02-19T19:00:08.247+0900][49014ms] GC(8007) Concurrent Cleanup for Next Mark
[2023-02-19T19:00:08.247+0900][49014ms] GC(8007) Concurrent Cleanup for Next Mark 0.129ms
[2023-02-19T19:00:08.247+0900][49014ms] GC(8007) Concurrent Cycle 4.409ms
[2023-02-19T19:00:08.249+0900][49016ms] GC(8008) Pause Young (Concurrent Start) (G1 Humongous Allocation)
[2023-02-19T19:00:08.249+0900][49016ms] GC(8008) Using 6 workers of 10 for evacuation
[2023-02-19T19:00:08.250+0900][49017ms] GC(8008)   Pre Evacuate Collection Set: 0.0ms
[2023-02-19T19:00:08.250+0900][49017ms] GC(8008)   Evacuate Collection Set: 0.3ms
[2023-02-19T19:00:08.250+0900][49017ms] GC(8008)   Post Evacuate Collection Set: 0.1ms
[2023-02-19T19:00:08.250+0900][49017ms] GC(8008)   Other: 0.1ms
[2023-02-19T19:00:08.250+0900][49017ms] GC(8008) Eden regions: 0->0(12)
[2023-02-19T19:00:08.250+0900][49017ms] GC(8008) Survivor regions: 1->1(2)
[2023-02-19T19:00:08.250+0900][49017ms] GC(8008) Old regions: 6->6
[2023-02-19T19:00:08.250+0900][49017ms] GC(8008) Humongous regions: 244->244
[2023-02-19T19:00:08.250+0900][49017ms] GC(8008) Metaspace: 8206K(9088K)->8206K(9088K) NonClass: 7386K(7936K)->7386K(7936K) Class: 820K(1152K)->820K(1152K)
[2023-02-19T19:00:08.250+0900][49017ms] GC(8008) Pause Young (Concurrent Start) (G1 Humongous Allocation) 247M->247M(270M) 0.563ms
[2023-02-19T19:00:08.250+0900][49017ms] GC(8008) User=0.00s Sys=0.00s Real=0.00s
[2023-02-19T19:00:08.250+0900][49017ms] GC(8009) Concurrent Cycle
[2023-02-19T19:00:08.250+0900][49017ms] GC(8009) Concurrent Clear Claimed Marks
[2023-02-19T19:00:08.250+0900][49017ms] GC(8009) Concurrent Clear Claimed Marks 0.005ms
[2023-02-19T19:00:08.250+0900][49017ms] GC(8009) Concurrent Scan Root Regions
[2023-02-19T19:00:08.250+0900][49017ms] GC(8009) Concurrent Scan Root Regions 0.070ms
[2023-02-19T19:00:08.250+0900][49017ms] GC(8009) Concurrent Mark (49.017s)
[2023-02-19T19:00:08.250+0900][49017ms] GC(8009) Concurrent Mark From Roots
[2023-02-19T19:00:08.250+0900][49017ms] GC(8009) Using 3 workers of 3 for marking
[2023-02-19T19:00:08.252+0900][49019ms] GC(8009) Concurrent Mark From Roots 1.823ms
[2023-02-19T19:00:08.252+0900][49019ms] GC(8009) Concurrent Preclean
[2023-02-19T19:00:08.252+0900][49019ms] GC(8009) Concurrent Preclean 0.039ms
[2023-02-19T19:00:08.252+0900][49019ms] GC(8009) Concurrent Mark (49.017s, 49.019s) 1.898ms
[2023-02-19T19:00:08.252+0900][49019ms] GC(8009) Pause Remark
[2023-02-19T19:00:08.252+0900][49019ms] GC(8009) Cleaned string and symbol table, strings: 1812 processed, 0 removed, symbols: 16299 processed, 0 removed
[2023-02-19T19:00:08.253+0900][49020ms] GC(8009) Pause Remark 248M->248M(270M) 0.812ms
[2023-02-19T19:00:08.253+0900][49020ms] GC(8009) User=0.00s Sys=0.00s Real=0.00s
[2023-02-19T19:00:08.253+0900][49020ms] GC(8009) Concurrent Rebuild Remembered Sets
[2023-02-19T19:00:08.254+0900][49021ms] GC(8009) Concurrent Rebuild Remembered Sets 0.874ms
[2023-02-19T19:00:08.254+0900][49021ms] GC(8009) Pause Cleanup
[2023-02-19T19:00:08.254+0900][49021ms] GC(8009) Pause Cleanup 249M->249M(270M) 0.104ms
[2023-02-19T19:00:08.254+0900][49021ms] GC(8009) User=0.00s Sys=0.00s Real=0.00s
[2023-02-19T19:00:08.254+0900][49021ms] GC(8009) Concurrent Cleanup for Next Mark
[2023-02-19T19:00:08.254+0900][49021ms] GC(8009) Concurrent Cleanup for Next Mark 0.123ms
[2023-02-19T19:00:08.254+0900][49021ms] GC(8009) Concurrent Cycle 4.398ms
[2023-02-19T19:00:08.256+0900][49023ms] GC(8010) Pause Young (Concurrent Start) (G1 Humongous Allocation)
[2023-02-19T19:00:08.256+0900][49023ms] GC(8010) Using 6 workers of 10 for evacuation
[2023-02-19T19:00:08.257+0900][49024ms] GC(8010)   Pre Evacuate Collection Set: 0.0ms
[2023-02-19T19:00:08.257+0900][49024ms] GC(8010)   Evacuate Collection Set: 0.3ms
[2023-02-19T19:00:08.257+0900][49024ms] GC(8010)   Post Evacuate Collection Set: 0.1ms
[2023-02-19T19:00:08.257+0900][49024ms] GC(8010)   Other: 0.1ms
[2023-02-19T19:00:08.257+0900][49024ms] GC(8010) Eden regions: 0->0(12)
[2023-02-19T19:00:08.257+0900][49024ms] GC(8010) Survivor regions: 1->1(2)
[2023-02-19T19:00:08.257+0900][49024ms] GC(8010) Old regions: 6->6
[2023-02-19T19:00:08.257+0900][49024ms] GC(8010) Humongous regions: 246->246
[2023-02-19T19:00:08.257+0900][49024ms] GC(8010) Metaspace: 8206K(9088K)->8206K(9088K) NonClass: 7386K(7936K)->7386K(7936K) Class: 820K(1152K)->820K(1152K)
[2023-02-19T19:00:08.257+0900][49024ms] GC(8010) Pause Young (Concurrent Start) (G1 Humongous Allocation) 249M->249M(270M) 0.604ms
[2023-02-19T19:00:08.257+0900][49024ms] GC(8010) User=0.00s Sys=0.00s Real=0.00s
[2023-02-19T19:00:08.257+0900][49024ms] GC(8011) Concurrent Cycle
[2023-02-19T19:00:08.257+0900][49024ms] GC(8011) Concurrent Clear Claimed Marks
[2023-02-19T19:00:08.257+0900][49024ms] GC(8011) Concurrent Clear Claimed Marks 0.007ms
[2023-02-19T19:00:08.257+0900][49024ms] GC(8011) Concurrent Scan Root Regions
[2023-02-19T19:00:08.257+0900][49024ms] GC(8011) Concurrent Scan Root Regions 0.073ms
[2023-02-19T19:00:08.257+0900][49024ms] GC(8011) Concurrent Mark (49.024s)
[2023-02-19T19:00:08.257+0900][49024ms] GC(8011) Concurrent Mark From Roots
[2023-02-19T19:00:08.257+0900][49024ms] GC(8011) Using 3 workers of 3 for marking
[2023-02-19T19:00:08.259+0900][49026ms] GC(8011) Concurrent Mark From Roots 1.858ms
[2023-02-19T19:00:08.259+0900][49026ms] GC(8011) Concurrent Preclean
[2023-02-19T19:00:08.259+0900][49026ms] GC(8011) Concurrent Preclean 0.040ms
[2023-02-19T19:00:08.259+0900][49026ms] GC(8011) Concurrent Mark (49.024s, 49.026s) 1.932ms
[2023-02-19T19:00:08.259+0900][49026ms] GC(8011) Pause Remark
[2023-02-19T19:00:08.260+0900][49027ms] GC(8011) Cleaned string and symbol table, strings: 1812 processed, 0 removed, symbols: 16299 processed, 0 removed
[2023-02-19T19:00:08.260+0900][49027ms] GC(8011) Pause Remark 250M->250M(270M) 0.824ms
[2023-02-19T19:00:08.260+0900][49027ms] GC(8011) User=0.00s Sys=0.00s Real=0.00s
[2023-02-19T19:00:08.260+0900][49027ms] GC(8011) Concurrent Rebuild Remembered Sets
[2023-02-19T19:00:08.261+0900][49028ms] GC(8011) Concurrent Rebuild Remembered Sets 0.860ms
[2023-02-19T19:00:08.261+0900][49028ms] GC(8011) Pause Cleanup
[2023-02-19T19:00:08.261+0900][49028ms] GC(8011) Pause Cleanup 251M->251M(270M) 0.113ms
[2023-02-19T19:00:08.261+0900][49028ms] GC(8011) User=0.00s Sys=0.00s Real=0.00s
[2023-02-19T19:00:08.261+0900][49028ms] GC(8011) Concurrent Cleanup for Next Mark
[2023-02-19T19:00:08.261+0900][49028ms] GC(8011) Concurrent Cleanup for Next Mark 0.120ms
[2023-02-19T19:00:08.261+0900][49028ms] GC(8011) Concurrent Cycle 4.393ms
[2023-02-19T19:00:08.263+0900][49030ms] GC(8012) Pause Young (Concurrent Start) (G1 Humongous Allocation)
[2023-02-19T19:00:08.263+0900][49030ms] GC(8012) Using 6 workers of 10 for evacuation
[2023-02-19T19:00:08.264+0900][49031ms] GC(8012)   Pre Evacuate Collection Set: 0.1ms
[2023-02-19T19:00:08.264+0900][49031ms] GC(8012)   Evacuate Collection Set: 0.3ms
[2023-02-19T19:00:08.264+0900][49031ms] GC(8012)   Post Evacuate Collection Set: 0.1ms
[2023-02-19T19:00:08.264+0900][49031ms] GC(8012)   Other: 0.1ms
[2023-02-19T19:00:08.264+0900][49031ms] GC(8012) Eden regions: 0->0(12)
[2023-02-19T19:00:08.264+0900][49031ms] GC(8012) Survivor regions: 1->1(2)
[2023-02-19T19:00:08.264+0900][49031ms] GC(8012) Old regions: 6->6
[2023-02-19T19:00:08.264+0900][49031ms] GC(8012) Humongous regions: 248->248
[2023-02-19T19:00:08.264+0900][49031ms] GC(8012) Metaspace: 8206K(9088K)->8206K(9088K) NonClass: 7386K(7936K)->7386K(7936K) Class: 820K(1152K)->820K(1152K)
[2023-02-19T19:00:08.264+0900][49031ms] GC(8012) Pause Young (Concurrent Start) (G1 Humongous Allocation) 251M->251M(270M) 0.604ms
[2023-02-19T19:00:08.264+0900][49031ms] GC(8012) User=0.00s Sys=0.00s Real=0.00s
[2023-02-19T19:00:08.264+0900][49031ms] GC(8013) Concurrent Cycle
[2023-02-19T19:00:08.264+0900][49031ms] GC(8013) Concurrent Clear Claimed Marks
[2023-02-19T19:00:08.264+0900][49031ms] GC(8013) Concurrent Clear Claimed Marks 0.004ms
[2023-02-19T19:00:08.264+0900][49031ms] GC(8013) Concurrent Scan Root Regions
[2023-02-19T19:00:08.264+0900][49031ms] GC(8013) Concurrent Scan Root Regions 0.072ms
[2023-02-19T19:00:08.264+0900][49031ms] GC(8013) Concurrent Mark (49.031s)
[2023-02-19T19:00:08.264+0900][49031ms] GC(8013) Concurrent Mark From Roots
[2023-02-19T19:00:08.264+0900][49031ms] GC(8013) Using 3 workers of 3 for marking
[2023-02-19T19:00:08.266+0900][49033ms] GC(8013) Concurrent Mark From Roots 1.833ms
[2023-02-19T19:00:08.266+0900][49033ms] GC(8013) Concurrent Preclean
[2023-02-19T19:00:08.266+0900][49033ms] GC(8013) Concurrent Preclean 0.041ms
[2023-02-19T19:00:08.266+0900][49033ms] GC(8013) Concurrent Mark (49.031s, 49.033s) 1.917ms
[2023-02-19T19:00:08.266+0900][49033ms] GC(8013) Pause Remark
[2023-02-19T19:00:08.267+0900][49034ms] GC(8013) Cleaned string and symbol table, strings: 1812 processed, 0 removed, symbols: 16299 processed, 0 removed
[2023-02-19T19:00:08.267+0900][49034ms] GC(8013) Pause Remark 252M->252M(270M) 0.822ms
[2023-02-19T19:00:08.267+0900][49034ms] GC(8013) User=0.00s Sys=0.00s Real=0.00s
[2023-02-19T19:00:08.267+0900][49034ms] GC(8013) Concurrent Rebuild Remembered Sets
[2023-02-19T19:00:08.268+0900][49035ms] GC(8013) Concurrent Rebuild Remembered Sets 0.899ms
[2023-02-19T19:00:08.268+0900][49035ms] GC(8013) Pause Cleanup
[2023-02-19T19:00:08.268+0900][49035ms] GC(8013) Pause Cleanup 253M->253M(270M) 0.107ms
[2023-02-19T19:00:08.268+0900][49035ms] GC(8013) User=0.00s Sys=0.00s Real=0.00s
[2023-02-19T19:00:08.268+0900][49035ms] GC(8013) Concurrent Cleanup for Next Mark
[2023-02-19T19:00:08.268+0900][49035ms] GC(8013) Concurrent Cleanup for Next Mark 0.135ms
[2023-02-19T19:00:08.268+0900][49035ms] GC(8013) Concurrent Cycle 4.417ms
[2023-02-19T19:00:08.271+0900][49038ms] GC(8014) Pause Young (Concurrent Start) (G1 Humongous Allocation)
[2023-02-19T19:00:08.271+0900][49038ms] GC(8014) Using 6 workers of 10 for evacuation
[2023-02-19T19:00:08.271+0900][49038ms] GC(8014)   Pre Evacuate Collection Set: 0.1ms
[2023-02-19T19:00:08.271+0900][49038ms] GC(8014)   Evacuate Collection Set: 0.3ms
[2023-02-19T19:00:08.271+0900][49038ms] GC(8014)   Post Evacuate Collection Set: 0.1ms
[2023-02-19T19:00:08.271+0900][49038ms] GC(8014)   Other: 0.1ms
[2023-02-19T19:00:08.271+0900][49038ms] GC(8014) Eden regions: 0->0(12)
[2023-02-19T19:00:08.271+0900][49038ms] GC(8014) Survivor regions: 1->1(2)
[2023-02-19T19:00:08.271+0900][49038ms] GC(8014) Old regions: 6->6
[2023-02-19T19:00:08.271+0900][49038ms] GC(8014) Humongous regions: 250->250
[2023-02-19T19:00:08.271+0900][49038ms] GC(8014) Metaspace: 8206K(9088K)->8206K(9088K) NonClass: 7386K(7936K)->7386K(7936K) Class: 820K(1152K)->820K(1152K)
[2023-02-19T19:00:08.271+0900][49038ms] GC(8014) Pause Young (Concurrent Start) (G1 Humongous Allocation) 253M->253M(270M) 0.604ms
[2023-02-19T19:00:08.271+0900][49038ms] GC(8014) User=0.00s Sys=0.00s Real=0.00s
[2023-02-19T19:00:08.271+0900][49038ms] GC(8015) Concurrent Cycle
[2023-02-19T19:00:08.271+0900][49038ms] GC(8015) Concurrent Clear Claimed Marks
[2023-02-19T19:00:08.271+0900][49038ms] GC(8015) Concurrent Clear Claimed Marks 0.006ms
[2023-02-19T19:00:08.271+0900][49038ms] GC(8015) Concurrent Scan Root Regions
[2023-02-19T19:00:08.271+0900][49038ms] GC(8015) Concurrent Scan Root Regions 0.069ms
[2023-02-19T19:00:08.271+0900][49038ms] GC(8015) Concurrent Mark (49.038s)
[2023-02-19T19:00:08.271+0900][49038ms] GC(8015) Concurrent Mark From Roots
[2023-02-19T19:00:08.271+0900][49038ms] GC(8015) Using 3 workers of 3 for marking
[2023-02-19T19:00:08.273+0900][49040ms] GC(8015) Concurrent Mark From Roots 1.842ms
[2023-02-19T19:00:08.273+0900][49040ms] GC(8015) Concurrent Preclean
[2023-02-19T19:00:08.273+0900][49040ms] GC(8015) Concurrent Preclean 0.040ms
[2023-02-19T19:00:08.273+0900][49040ms] GC(8015) Concurrent Mark (49.038s, 49.040s) 1.922ms
[2023-02-19T19:00:08.273+0900][49040ms] GC(8015) Pause Remark
[2023-02-19T19:00:08.274+0900][49041ms] GC(8015) Cleaned string and symbol table, strings: 1812 processed, 0 removed, symbols: 16299 processed, 0 removed
[2023-02-19T19:00:08.274+0900][49041ms] GC(8015) Pause Remark 254M->254M(270M) 0.799ms
[2023-02-19T19:00:08.274+0900][49041ms] GC(8015) User=0.00s Sys=0.00s Real=0.00s
[2023-02-19T19:00:08.274+0900][49041ms] GC(8015) Concurrent Rebuild Remembered Sets
[2023-02-19T19:00:08.275+0900][49042ms] GC(8015) Concurrent Rebuild Remembered Sets 0.889ms
[2023-02-19T19:00:08.275+0900][49042ms] GC(8015) Pause Cleanup
[2023-02-19T19:00:08.275+0900][49042ms] GC(8015) Pause Cleanup 255M->255M(270M) 0.106ms
[2023-02-19T19:00:08.275+0900][49042ms] GC(8015) User=0.00s Sys=0.00s Real=0.00s
[2023-02-19T19:00:08.276+0900][49043ms] GC(8015) Concurrent Cleanup for Next Mark
[2023-02-19T19:00:08.276+0900][49043ms] GC(8015) Concurrent Cleanup for Next Mark 0.133ms
[2023-02-19T19:00:08.276+0900][49043ms] GC(8015) Concurrent Cycle 4.403ms
[2023-02-19T19:00:08.278+0900][49045ms] GC(8016) Pause Young (Concurrent Start) (G1 Humongous Allocation)
[2023-02-19T19:00:08.278+0900][49045ms] GC(8016) Using 6 workers of 10 for evacuation
[2023-02-19T19:00:08.278+0900][49045ms] GC(8016)   Pre Evacuate Collection Set: 0.0ms
[2023-02-19T19:00:08.278+0900][49045ms] GC(8016)   Evacuate Collection Set: 0.3ms
[2023-02-19T19:00:08.278+0900][49045ms] GC(8016)   Post Evacuate Collection Set: 0.1ms
[2023-02-19T19:00:08.278+0900][49045ms] GC(8016)   Other: 0.1ms
[2023-02-19T19:00:08.278+0900][49045ms] GC(8016) Eden regions: 0->0(12)
[2023-02-19T19:00:08.278+0900][49045ms] GC(8016) Survivor regions: 1->1(2)
[2023-02-19T19:00:08.278+0900][49045ms] GC(8016) Old regions: 6->6
[2023-02-19T19:00:08.278+0900][49045ms] GC(8016) Humongous regions: 252->252
[2023-02-19T19:00:08.278+0900][49045ms] GC(8016) Metaspace: 8206K(9088K)->8206K(9088K) NonClass: 7386K(7936K)->7386K(7936K) Class: 820K(1152K)->820K(1152K)
[2023-02-19T19:00:08.278+0900][49045ms] GC(8016) Pause Young (Concurrent Start) (G1 Humongous Allocation) 255M->255M(270M) 0.602ms
[2023-02-19T19:00:08.278+0900][49045ms] GC(8016) User=0.00s Sys=0.00s Real=0.00s
[2023-02-19T19:00:08.278+0900][49045ms] GC(8017) Concurrent Cycle
[2023-02-19T19:00:08.278+0900][49045ms] GC(8017) Concurrent Clear Claimed Marks
[2023-02-19T19:00:08.278+0900][49045ms] GC(8017) Concurrent Clear Claimed Marks 0.005ms
[2023-02-19T19:00:08.278+0900][49045ms] GC(8017) Concurrent Scan Root Regions
[2023-02-19T19:00:08.278+0900][49045ms] GC(8017) Concurrent Scan Root Regions 0.069ms
[2023-02-19T19:00:08.279+0900][49046ms] GC(8017) Concurrent Mark (49.045s)
[2023-02-19T19:00:08.279+0900][49046ms] GC(8017) Concurrent Mark From Roots
[2023-02-19T19:00:08.279+0900][49046ms] GC(8017) Using 3 workers of 3 for marking
[2023-02-19T19:00:08.280+0900][49047ms] GC(8017) Concurrent Mark From Roots 1.791ms
[2023-02-19T19:00:08.280+0900][49047ms] GC(8017) Concurrent Preclean
[2023-02-19T19:00:08.280+0900][49047ms] GC(8017) Concurrent Preclean 0.040ms
[2023-02-19T19:00:08.280+0900][49047ms] GC(8017) Concurrent Mark (49.045s, 49.047s) 1.867ms
[2023-02-19T19:00:08.280+0900][49047ms] GC(8017) Pause Remark
[2023-02-19T19:00:08.281+0900][49048ms] GC(8017) Cleaned string and symbol table, strings: 1812 processed, 0 removed, symbols: 16299 processed, 0 removed
[2023-02-19T19:00:08.281+0900][49048ms] GC(8017) Pause Remark 256M->256M(270M) 0.822ms
[2023-02-19T19:00:08.281+0900][49048ms] GC(8017) User=0.00s Sys=0.00s Real=0.00s
[2023-02-19T19:00:08.281+0900][49048ms] GC(8017) Concurrent Rebuild Remembered Sets
[2023-02-19T19:00:08.282+0900][49049ms] GC(8017) Concurrent Rebuild Remembered Sets 0.866ms
[2023-02-19T19:00:08.282+0900][49049ms] GC(8017) Pause Cleanup
[2023-02-19T19:00:08.283+0900][49050ms] GC(8017) Pause Cleanup 257M->257M(270M) 0.106ms
[2023-02-19T19:00:08.283+0900][49050ms] GC(8017) User=0.01s Sys=0.00s Real=0.00s
[2023-02-19T19:00:08.283+0900][49050ms] GC(8017) Concurrent Cleanup for Next Mark
[2023-02-19T19:00:08.283+0900][49050ms] GC(8017) Concurrent Cleanup for Next Mark 0.115ms
[2023-02-19T19:00:08.283+0900][49050ms] GC(8017) Concurrent Cycle 4.305ms
[2023-02-19T19:00:08.285+0900][49052ms] GC(8018) Pause Young (Concurrent Start) (G1 Humongous Allocation)
[2023-02-19T19:00:08.285+0900][49052ms] GC(8018) Using 6 workers of 10 for evacuation
[2023-02-19T19:00:08.285+0900][49052ms] GC(8018)   Pre Evacuate Collection Set: 0.0ms
[2023-02-19T19:00:08.285+0900][49052ms] GC(8018)   Evacuate Collection Set: 0.3ms
[2023-02-19T19:00:08.285+0900][49052ms] GC(8018)   Post Evacuate Collection Set: 0.1ms
[2023-02-19T19:00:08.285+0900][49052ms] GC(8018)   Other: 0.1ms
[2023-02-19T19:00:08.285+0900][49052ms] GC(8018) Eden regions: 0->0(12)
[2023-02-19T19:00:08.285+0900][49052ms] GC(8018) Survivor regions: 1->1(2)
[2023-02-19T19:00:08.285+0900][49052ms] GC(8018) Old regions: 6->6
[2023-02-19T19:00:08.286+0900][49053ms] GC(8018) Humongous regions: 254->254
[2023-02-19T19:00:08.286+0900][49053ms] GC(8018) Metaspace: 8206K(9088K)->8206K(9088K) NonClass: 7386K(7936K)->7386K(7936K) Class: 820K(1152K)->820K(1152K)
[2023-02-19T19:00:08.286+0900][49053ms] GC(8018) Pause Young (Concurrent Start) (G1 Humongous Allocation) 257M->257M(270M) 0.582ms
[2023-02-19T19:00:08.286+0900][49053ms] GC(8018) User=0.00s Sys=0.00s Real=0.00s
[2023-02-19T19:00:08.286+0900][49053ms] GC(8019) Concurrent Cycle
[2023-02-19T19:00:08.286+0900][49053ms] GC(8019) Concurrent Clear Claimed Marks
[2023-02-19T19:00:08.286+0900][49053ms] GC(8019) Concurrent Clear Claimed Marks 0.007ms
[2023-02-19T19:00:08.286+0900][49053ms] GC(8019) Concurrent Scan Root Regions
[2023-02-19T19:00:08.286+0900][49053ms] GC(8019) Concurrent Scan Root Regions 0.072ms
[2023-02-19T19:00:08.286+0900][49053ms] GC(8019) Concurrent Mark (49.052s)
[2023-02-19T19:00:08.286+0900][49053ms] GC(8019) Concurrent Mark From Roots
[2023-02-19T19:00:08.286+0900][49053ms] GC(8019) Using 3 workers of 3 for marking
[2023-02-19T19:00:08.288+0900][49055ms] GC(8019) Concurrent Mark From Roots 1.860ms
[2023-02-19T19:00:08.288+0900][49055ms] GC(8019) Concurrent Preclean
[2023-02-19T19:00:08.288+0900][49055ms] GC(8019) Concurrent Preclean 0.040ms
[2023-02-19T19:00:08.288+0900][49055ms] GC(8019) Concurrent Mark (49.052s, 49.054s) 1.945ms
[2023-02-19T19:00:08.288+0900][49055ms] GC(8019) Pause Remark
[2023-02-19T19:00:08.288+0900][49055ms] GC(8019) Cleaned string and symbol table, strings: 1812 processed, 0 removed, symbols: 16299 processed, 0 removed
[2023-02-19T19:00:08.289+0900][49056ms] GC(8019) Pause Remark 258M->258M(270M) 0.798ms
[2023-02-19T19:00:08.289+0900][49056ms] GC(8019) User=0.00s Sys=0.00s Real=0.00s
[2023-02-19T19:00:08.289+0900][49056ms] GC(8019) Concurrent Rebuild Remembered Sets
[2023-02-19T19:00:08.289+0900][49056ms] GC(8019) Concurrent Rebuild Remembered Sets 0.874ms
[2023-02-19T19:00:08.290+0900][49057ms] GC(8019) Pause Cleanup
[2023-02-19T19:00:08.290+0900][49057ms] GC(8019) Pause Cleanup 259M->259M(270M) 0.162ms
[2023-02-19T19:00:08.290+0900][49057ms] GC(8019) User=0.00s Sys=0.00s Real=0.00s
[2023-02-19T19:00:08.290+0900][49057ms] GC(8019) Concurrent Cleanup for Next Mark
[2023-02-19T19:00:08.290+0900][49057ms] GC(8019) Concurrent Cleanup for Next Mark 0.185ms
[2023-02-19T19:00:08.290+0900][49057ms] GC(8019) Concurrent Cycle 4.509ms
[2023-02-19T19:00:08.292+0900][49059ms] GC(8020) Pause Young (Concurrent Start) (G1 Humongous Allocation)
[2023-02-19T19:00:08.292+0900][49059ms] GC(8020) Using 6 workers of 10 for evacuation
[2023-02-19T19:00:08.293+0900][49060ms] GC(8020)   Pre Evacuate Collection Set: 0.1ms
[2023-02-19T19:00:08.293+0900][49060ms] GC(8020)   Evacuate Collection Set: 0.3ms
[2023-02-19T19:00:08.293+0900][49060ms] GC(8020)   Post Evacuate Collection Set: 0.1ms
[2023-02-19T19:00:08.293+0900][49060ms] GC(8020)   Other: 0.1ms
[2023-02-19T19:00:08.293+0900][49060ms] GC(8020) Eden regions: 0->0(12)
[2023-02-19T19:00:08.293+0900][49060ms] GC(8020) Survivor regions: 1->1(2)
[2023-02-19T19:00:08.293+0900][49060ms] GC(8020) Old regions: 6->6
[2023-02-19T19:00:08.293+0900][49060ms] GC(8020) Humongous regions: 256->256
[2023-02-19T19:00:08.293+0900][49060ms] GC(8020) Metaspace: 8206K(9088K)->8206K(9088K) NonClass: 7386K(7936K)->7386K(7936K) Class: 820K(1152K)->820K(1152K)
[2023-02-19T19:00:08.293+0900][49060ms] GC(8020) Pause Young (Concurrent Start) (G1 Humongous Allocation) 259M->259M(270M) 0.702ms
[2023-02-19T19:00:08.293+0900][49060ms] GC(8020) User=0.00s Sys=0.00s Real=0.00s
[2023-02-19T19:00:08.293+0900][49060ms] GC(8021) Concurrent Cycle
[2023-02-19T19:00:08.293+0900][49060ms] GC(8021) Concurrent Clear Claimed Marks
[2023-02-19T19:00:08.293+0900][49060ms] GC(8021) Concurrent Clear Claimed Marks 0.005ms
[2023-02-19T19:00:08.293+0900][49060ms] GC(8021) Concurrent Scan Root Regions
[2023-02-19T19:00:08.293+0900][49060ms] GC(8021) Concurrent Scan Root Regions 0.081ms
[2023-02-19T19:00:08.293+0900][49060ms] GC(8021) Concurrent Mark (49.060s)
[2023-02-19T19:00:08.293+0900][49060ms] GC(8021) Concurrent Mark From Roots
[2023-02-19T19:00:08.293+0900][49060ms] GC(8021) Using 3 workers of 3 for marking
[2023-02-19T19:00:08.295+0900][49062ms] GC(8021) Concurrent Mark From Roots 2.143ms
[2023-02-19T19:00:08.295+0900][49062ms] GC(8021) Concurrent Preclean
[2023-02-19T19:00:08.295+0900][49062ms] GC(8021) Concurrent Preclean 0.041ms
[2023-02-19T19:00:08.295+0900][49062ms] GC(8021) Concurrent Mark (49.060s, 49.062s) 2.231ms
[2023-02-19T19:00:08.295+0900][49062ms] GC(8021) Pause Remark
[2023-02-19T19:00:08.296+0900][49063ms] GC(8021) Cleaned string and symbol table, strings: 1812 processed, 0 removed, symbols: 16299 processed, 0 removed
[2023-02-19T19:00:08.296+0900][49063ms] GC(8021) Pause Remark 260M->260M(270M) 0.834ms
[2023-02-19T19:00:08.296+0900][49063ms] GC(8021) User=0.00s Sys=0.00s Real=0.00s
[2023-02-19T19:00:08.296+0900][49063ms] GC(8021) Concurrent Rebuild Remembered Sets
[2023-02-19T19:00:08.297+0900][49064ms] GC(8021) Concurrent Rebuild Remembered Sets 0.894ms
[2023-02-19T19:00:08.297+0900][49064ms] GC(8021) Pause Cleanup
[2023-02-19T19:00:08.297+0900][49064ms] GC(8021) Pause Cleanup 261M->261M(270M) 0.123ms
[2023-02-19T19:00:08.297+0900][49064ms] GC(8021) User=0.00s Sys=0.00s Real=0.00s
[2023-02-19T19:00:08.298+0900][49065ms] GC(8021) Concurrent Cleanup for Next Mark
[2023-02-19T19:00:08.298+0900][49065ms] GC(8021) Concurrent Cleanup for Next Mark 0.122ms
[2023-02-19T19:00:08.298+0900][49065ms] GC(8021) Concurrent Cycle 4.787ms
[2023-02-19T19:00:08.299+0900][49066ms] GC(8022) Pause Young (Concurrent Start) (G1 Humongous Allocation)
[2023-02-19T19:00:08.299+0900][49066ms] GC(8022) Using 6 workers of 10 for evacuation
[2023-02-19T19:00:08.300+0900][49067ms] GC(8022)   Pre Evacuate Collection Set: 0.1ms
[2023-02-19T19:00:08.300+0900][49067ms] GC(8022)   Evacuate Collection Set: 0.4ms
[2023-02-19T19:00:08.300+0900][49067ms] GC(8022)   Post Evacuate Collection Set: 0.1ms
[2023-02-19T19:00:08.300+0900][49067ms] GC(8022)   Other: 0.1ms
[2023-02-19T19:00:08.300+0900][49067ms] GC(8022) Eden regions: 0->0(12)
[2023-02-19T19:00:08.300+0900][49067ms] GC(8022) Survivor regions: 1->1(2)
[2023-02-19T19:00:08.300+0900][49067ms] GC(8022) Old regions: 6->6
[2023-02-19T19:00:08.300+0900][49067ms] GC(8022) Humongous regions: 258->258
[2023-02-19T19:00:08.300+0900][49067ms] GC(8022) Metaspace: 8206K(9088K)->8206K(9088K) NonClass: 7386K(7936K)->7386K(7936K) Class: 820K(1152K)->820K(1152K)
[2023-02-19T19:00:08.300+0900][49067ms] GC(8022) Pause Young (Concurrent Start) (G1 Humongous Allocation) 261M->261M(270M) 0.743ms
[2023-02-19T19:00:08.300+0900][49067ms] GC(8022) User=0.00s Sys=0.00s Real=0.00s
[2023-02-19T19:00:08.300+0900][49067ms] GC(8023) Concurrent Cycle
[2023-02-19T19:00:08.300+0900][49067ms] GC(8023) Concurrent Clear Claimed Marks
[2023-02-19T19:00:08.300+0900][49067ms] GC(8023) Concurrent Clear Claimed Marks 0.004ms
[2023-02-19T19:00:08.300+0900][49067ms] GC(8023) Concurrent Scan Root Regions
[2023-02-19T19:00:08.300+0900][49067ms] GC(8023) Concurrent Scan Root Regions 0.072ms
[2023-02-19T19:00:08.300+0900][49067ms] GC(8023) Concurrent Mark (49.067s)
[2023-02-19T19:00:08.300+0900][49067ms] GC(8023) Concurrent Mark From Roots
[2023-02-19T19:00:08.300+0900][49067ms] GC(8023) Using 3 workers of 3 for marking
[2023-02-19T19:00:08.302+0900][49069ms] GC(8023) Concurrent Mark From Roots 1.737ms
[2023-02-19T19:00:08.302+0900][49069ms] GC(8023) Concurrent Preclean
[2023-02-19T19:00:08.302+0900][49069ms] GC(8023) Concurrent Preclean 0.040ms
[2023-02-19T19:00:08.302+0900][49069ms] GC(8023) Concurrent Mark (49.067s, 49.069s) 1.815ms
[2023-02-19T19:00:08.302+0900][49069ms] GC(8023) Pause Remark
[2023-02-19T19:00:08.303+0900][49070ms] GC(8023) Cleaned string and symbol table, strings: 1812 processed, 0 removed, symbols: 16299 processed, 0 removed
[2023-02-19T19:00:08.303+0900][49070ms] GC(8023) Pause Remark 262M->262M(270M) 0.850ms
[2023-02-19T19:00:08.303+0900][49070ms] GC(8023) User=0.00s Sys=0.00s Real=0.00s
[2023-02-19T19:00:08.303+0900][49070ms] GC(8023) Concurrent Rebuild Remembered Sets
[2023-02-19T19:00:08.304+0900][49071ms] GC(8023) Concurrent Rebuild Remembered Sets 0.873ms
[2023-02-19T19:00:08.304+0900][49071ms] GC(8023) Pause Cleanup
[2023-02-19T19:00:08.304+0900][49071ms] GC(8023) Pause Cleanup 263M->263M(270M) 0.106ms
[2023-02-19T19:00:08.304+0900][49071ms] GC(8023) User=0.00s Sys=0.00s Real=0.00s
[2023-02-19T19:00:08.304+0900][49071ms] GC(8023) Concurrent Cleanup for Next Mark
[2023-02-19T19:00:08.305+0900][49072ms] GC(8023) Concurrent Cleanup for Next Mark 0.137ms
[2023-02-19T19:00:08.305+0900][49072ms] GC(8023) Concurrent Cycle 4.328ms
[2023-02-19T19:00:08.307+0900][49074ms] GC(8024) Pause Young (Concurrent Start) (G1 Humongous Allocation)
[2023-02-19T19:00:08.307+0900][49074ms] GC(8024) Using 6 workers of 10 for evacuation
[2023-02-19T19:00:08.307+0900][49074ms] GC(8024)   Pre Evacuate Collection Set: 0.0ms
[2023-02-19T19:00:08.307+0900][49074ms] GC(8024)   Evacuate Collection Set: 0.3ms
[2023-02-19T19:00:08.307+0900][49074ms] GC(8024)   Post Evacuate Collection Set: 0.1ms
[2023-02-19T19:00:08.307+0900][49074ms] GC(8024)   Other: 0.1ms
[2023-02-19T19:00:08.307+0900][49074ms] GC(8024) Eden regions: 0->0(13)
[2023-02-19T19:00:08.307+0900][49074ms] GC(8024) Survivor regions: 1->0(2)
[2023-02-19T19:00:08.307+0900][49074ms] GC(8024) Old regions: 6->6
[2023-02-19T19:00:08.307+0900][49074ms] GC(8024) Humongous regions: 260->260
[2023-02-19T19:00:08.307+0900][49074ms] GC(8024) Metaspace: 8206K(9088K)->8206K(9088K) NonClass: 7386K(7936K)->7386K(7936K) Class: 820K(1152K)->820K(1152K)
[2023-02-19T19:00:08.307+0900][49074ms] GC(8024) Pause Young (Concurrent Start) (G1 Humongous Allocation) 263M->263M(270M) 0.569ms
[2023-02-19T19:00:08.307+0900][49074ms] GC(8024) User=0.00s Sys=0.00s Real=0.00s
[2023-02-19T19:00:08.307+0900][49074ms] GC(8025) Concurrent Cycle
[2023-02-19T19:00:08.307+0900][49074ms] GC(8025) Concurrent Clear Claimed Marks
[2023-02-19T19:00:08.307+0900][49074ms] GC(8025) Concurrent Clear Claimed Marks 0.006ms
[2023-02-19T19:00:08.307+0900][49074ms] GC(8025) Concurrent Scan Root Regions
[2023-02-19T19:00:08.307+0900][49074ms] GC(8025) Concurrent Scan Root Regions 0.003ms
[2023-02-19T19:00:08.307+0900][49074ms] GC(8025) Concurrent Mark (49.074s)
[2023-02-19T19:00:08.307+0900][49074ms] GC(8025) Concurrent Mark From Roots
[2023-02-19T19:00:08.307+0900][49074ms] GC(8025) Using 3 workers of 3 for marking
[2023-02-19T19:00:08.309+0900][49076ms] GC(8025) Concurrent Mark From Roots 1.790ms
[2023-02-19T19:00:08.309+0900][49076ms] GC(8025) Concurrent Preclean
[2023-02-19T19:00:08.309+0900][49076ms] GC(8025) Concurrent Preclean 0.040ms
[2023-02-19T19:00:08.309+0900][49076ms] GC(8025) Concurrent Mark (49.074s, 49.076s) 1.868ms
[2023-02-19T19:00:08.309+0900][49076ms] GC(8025) Pause Remark
[2023-02-19T19:00:08.310+0900][49077ms] GC(8025) Cleaned string and symbol table, strings: 1812 processed, 0 removed, symbols: 16299 processed, 0 removed
[2023-02-19T19:00:08.310+0900][49077ms] GC(8025) Pause Remark 264M->264M(270M) 0.844ms
[2023-02-19T19:00:08.310+0900][49077ms] GC(8025) User=0.00s Sys=0.00s Real=0.00s
[2023-02-19T19:00:08.310+0900][49077ms] GC(8025) Concurrent Rebuild Remembered Sets
[2023-02-19T19:00:08.311+0900][49078ms] GC(8025) Concurrent Rebuild Remembered Sets 0.892ms
[2023-02-19T19:00:08.311+0900][49078ms] GC(8025) Pause Cleanup
[2023-02-19T19:00:08.311+0900][49078ms] GC(8025) Pause Cleanup 265M->265M(270M) 0.102ms
[2023-02-19T19:00:08.311+0900][49078ms] GC(8025) User=0.00s Sys=0.00s Real=0.00s
[2023-02-19T19:00:08.311+0900][49078ms] GC(8025) Concurrent Cleanup for Next Mark
[2023-02-19T19:00:08.312+0900][49079ms] GC(8025) Concurrent Cleanup for Next Mark 0.127ms
[2023-02-19T19:00:08.312+0900][49079ms] GC(8025) Concurrent Cycle 4.306ms
[2023-02-19T19:00:08.314+0900][49081ms] GC(8026) Pause Young (Concurrent Start) (G1 Humongous Allocation)
[2023-02-19T19:00:08.314+0900][49081ms] GC(8026) Using 6 workers of 10 for evacuation
[2023-02-19T19:00:08.315+0900][49082ms] GC(8026)   Pre Evacuate Collection Set: 0.1ms
[2023-02-19T19:00:08.315+0900][49082ms] GC(8026)   Evacuate Collection Set: 0.4ms
[2023-02-19T19:00:08.315+0900][49082ms] GC(8026)   Post Evacuate Collection Set: 0.6ms
[2023-02-19T19:00:08.315+0900][49082ms] GC(8026)   Other: 0.1ms
[2023-02-19T19:00:08.315+0900][49082ms] GC(8026) Eden regions: 0->0(13)
[2023-02-19T19:00:08.315+0900][49082ms] GC(8026) Survivor regions: 0->0(2)
[2023-02-19T19:00:08.315+0900][49082ms] GC(8026) Old regions: 6->6
[2023-02-19T19:00:08.315+0900][49082ms] GC(8026) Humongous regions: 262->262
[2023-02-19T19:00:08.315+0900][49082ms] GC(8026) Metaspace: 8206K(9088K)->8206K(9088K) NonClass: 7386K(7936K)->7386K(7936K) Class: 820K(1152K)->820K(1152K)
[2023-02-19T19:00:08.315+0900][49082ms] GC(8026) Pause Young (Concurrent Start) (G1 Humongous Allocation) 265M->265M(270M) 1.242ms
[2023-02-19T19:00:08.315+0900][49082ms] GC(8026) User=0.00s Sys=0.00s Real=0.00s
[2023-02-19T19:00:08.315+0900][49082ms] GC(8027) Concurrent Cycle
[2023-02-19T19:00:08.315+0900][49082ms] GC(8027) Concurrent Clear Claimed Marks
[2023-02-19T19:00:08.315+0900][49082ms] GC(8027) Concurrent Clear Claimed Marks 0.006ms
[2023-02-19T19:00:08.315+0900][49082ms] GC(8027) Concurrent Scan Root Regions
[2023-02-19T19:00:08.315+0900][49082ms] GC(8027) Concurrent Scan Root Regions 0.003ms
[2023-02-19T19:00:08.315+0900][49082ms] GC(8027) Concurrent Mark (49.082s)
[2023-02-19T19:00:08.315+0900][49082ms] GC(8027) Concurrent Mark From Roots
[2023-02-19T19:00:08.315+0900][49082ms] GC(8027) Using 3 workers of 3 for marking
[2023-02-19T19:00:08.317+0900][49084ms] GC(8027) Concurrent Mark From Roots 1.852ms
[2023-02-19T19:00:08.317+0900][49084ms] GC(8027) Concurrent Preclean
[2023-02-19T19:00:08.317+0900][49084ms] GC(8027) Concurrent Preclean 0.040ms
[2023-02-19T19:00:08.317+0900][49084ms] GC(8027) Concurrent Mark (49.082s, 49.084s) 1.924ms
[2023-02-19T19:00:08.317+0900][49084ms] GC(8027) Pause Remark
[2023-02-19T19:00:08.318+0900][49085ms] GC(8027) Cleaned string and symbol table, strings: 1812 processed, 0 removed, symbols: 16299 processed, 0 removed
[2023-02-19T19:00:08.318+0900][49085ms] GC(8027) Pause Remark 266M->266M(270M) 0.792ms
[2023-02-19T19:00:08.318+0900][49085ms] GC(8027) User=0.00s Sys=0.00s Real=0.00s
[2023-02-19T19:00:08.318+0900][49085ms] GC(8027) Concurrent Rebuild Remembered Sets
[2023-02-19T19:00:08.319+0900][49086ms] GC(8027) Concurrent Rebuild Remembered Sets 0.895ms
[2023-02-19T19:00:08.319+0900][49086ms] GC(8027) Pause Cleanup
[2023-02-19T19:00:08.319+0900][49086ms] GC(8027) Pause Cleanup 267M->267M(270M) 0.104ms
[2023-02-19T19:00:08.319+0900][49086ms] GC(8027) User=0.00s Sys=0.00s Real=0.00s
[2023-02-19T19:00:08.319+0900][49086ms] GC(8027) Concurrent Cleanup for Next Mark
[2023-02-19T19:00:08.320+0900][49087ms] GC(8027) Concurrent Cleanup for Next Mark 0.137ms
[2023-02-19T19:00:08.320+0900][49087ms] GC(8027) Concurrent Cycle 4.305ms
[2023-02-19T19:00:08.322+0900][49089ms] GC(8028) Pause Young (Concurrent Start) (G1 Humongous Allocation)
[2023-02-19T19:00:08.322+0900][49089ms] GC(8028) Using 6 workers of 10 for evacuation
[2023-02-19T19:00:08.322+0900][49089ms] GC(8028)   Pre Evacuate Collection Set: 0.1ms
[2023-02-19T19:00:08.322+0900][49089ms] GC(8028)   Evacuate Collection Set: 0.4ms
[2023-02-19T19:00:08.323+0900][49090ms] GC(8028)   Post Evacuate Collection Set: 0.1ms
[2023-02-19T19:00:08.323+0900][49090ms] GC(8028)   Other: 0.1ms
[2023-02-19T19:00:08.323+0900][49090ms] GC(8028) Eden regions: 0->0(13)
[2023-02-19T19:00:08.323+0900][49090ms] GC(8028) Survivor regions: 0->0(2)
[2023-02-19T19:00:08.323+0900][49090ms] GC(8028) Old regions: 6->6
[2023-02-19T19:00:08.323+0900][49090ms] GC(8028) Humongous regions: 264->264
[2023-02-19T19:00:08.323+0900][49090ms] GC(8028) Metaspace: 8206K(9088K)->8206K(9088K) NonClass: 7386K(7936K)->7386K(7936K) Class: 820K(1152K)->820K(1152K)
[2023-02-19T19:00:08.323+0900][49090ms] GC(8028) Pause Young (Concurrent Start) (G1 Humongous Allocation) 267M->267M(270M) 0.765ms
[2023-02-19T19:00:08.323+0900][49090ms] GC(8028) User=0.00s Sys=0.00s Real=0.00s
[2023-02-19T19:00:08.323+0900][49090ms] GC(8029) Concurrent Cycle
[2023-02-19T19:00:08.323+0900][49090ms] GC(8029) Concurrent Clear Claimed Marks
[2023-02-19T19:00:08.323+0900][49090ms] GC(8029) Concurrent Clear Claimed Marks 0.006ms
[2023-02-19T19:00:08.323+0900][49090ms] GC(8029) Concurrent Scan Root Regions
[2023-02-19T19:00:08.323+0900][49090ms] GC(8029) Concurrent Scan Root Regions 0.003ms
[2023-02-19T19:00:08.323+0900][49090ms] GC(8029) Concurrent Mark (49.089s)
[2023-02-19T19:00:08.323+0900][49090ms] GC(8029) Concurrent Mark From Roots
[2023-02-19T19:00:08.323+0900][49090ms] GC(8029) Using 3 workers of 3 for marking
[2023-02-19T19:00:08.323+0900][49090ms] GC(8030) Pause Young (Normal) (G1 Humongous Allocation)
[2023-02-19T19:00:08.323+0900][49090ms] GC(8030) Using 6 workers of 10 for evacuation
[2023-02-19T19:00:08.323+0900][49090ms] GC(8030)   Pre Evacuate Collection Set: 0.1ms
[2023-02-19T19:00:08.323+0900][49090ms] GC(8030)   Evacuate Collection Set: 0.1ms
[2023-02-19T19:00:08.323+0900][49090ms] GC(8030)   Post Evacuate Collection Set: 0.1ms
[2023-02-19T19:00:08.323+0900][49090ms] GC(8030)   Other: 0.0ms
[2023-02-19T19:00:08.323+0900][49090ms] GC(8030) Eden regions: 0->0(13)
[2023-02-19T19:00:08.323+0900][49090ms] GC(8030) Survivor regions: 0->0(2)
[2023-02-19T19:00:08.323+0900][49090ms] GC(8030) Old regions: 6->6
[2023-02-19T19:00:08.323+0900][49090ms] GC(8030) Humongous regions: 264->264
[2023-02-19T19:00:08.323+0900][49090ms] GC(8030) Metaspace: 8206K(9088K)->8206K(9088K) NonClass: 7386K(7936K)->7386K(7936K) Class: 820K(1152K)->820K(1152K)
[2023-02-19T19:00:08.323+0900][49090ms] GC(8030) Pause Young (Normal) (G1 Humongous Allocation) 267M->267M(270M) 0.397ms
[2023-02-19T19:00:08.323+0900][49090ms] GC(8030) User=0.00s Sys=0.00s Real=0.00s
[2023-02-19T19:00:08.323+0900][49090ms] GC(8031) Using 6 workers of 10 for full compaction
[2023-02-19T19:00:08.323+0900][49090ms] GC(8031) Pause Full (G1 Humongous Allocation)
[2023-02-19T19:00:08.323+0900][49090ms] GC(8031) Phase 1: Mark live objects
[2023-02-19T19:00:08.326+0900][49094ms] GC(8031) Cleaned string and symbol table, strings: 1812 processed, 0 removed, symbols: 16299 processed, 0 removed
[2023-02-19T19:00:08.327+0900][49094ms] GC(8031) Phase 1: Mark live objects 3.298ms
[2023-02-19T19:00:08.327+0900][49094ms] GC(8031) Phase 2: Prepare for compaction
[2023-02-19T19:00:08.328+0900][49095ms] GC(8031) Phase 2: Prepare for compaction 0.964ms
[2023-02-19T19:00:08.328+0900][49095ms] GC(8031) Phase 3: Adjust pointers
[2023-02-19T19:00:08.329+0900][49096ms] GC(8031) Phase 3: Adjust pointers 0.961ms
[2023-02-19T19:00:08.329+0900][49096ms] GC(8031) Phase 4: Compact heap
[2023-02-19T19:00:08.329+0900][49096ms] GC(8031) Phase 4: Compact heap 0.668ms
[2023-02-19T19:00:08.330+0900][49097ms] GC(8031) Eden regions: 0->0(13)
[2023-02-19T19:00:08.330+0900][49097ms] GC(8031) Survivor regions: 0->0(2)
[2023-02-19T19:00:08.330+0900][49097ms] GC(8031) Old regions: 6->5
[2023-02-19T19:00:08.330+0900][49097ms] GC(8031) Humongous regions: 264->264
[2023-02-19T19:00:08.330+0900][49097ms] GC(8031) Metaspace: 8206K(9088K)->8206K(9088K) NonClass: 7386K(7936K)->7386K(7936K) Class: 820K(1152K)->820K(1152K)
[2023-02-19T19:00:08.330+0900][49097ms] GC(8031) Pause Full (G1 Humongous Allocation) 267M->267M(270M) 6.852ms
[2023-02-19T19:00:08.330+0900][49097ms] GC(8031) User=0.02s Sys=0.00s Real=0.01s
[2023-02-19T19:00:08.330+0900][49097ms] GC(8029) Concurrent Mark From Roots 7.539ms
[2023-02-19T19:00:08.330+0900][49097ms] GC(8029) Concurrent Mark Abort
[2023-02-19T19:00:08.330+0900][49097ms] GC(8029) Concurrent Cycle 7.605ms
[2023-02-19T19:00:08.333+0900][49100ms] GC(8032) Pause Young (Concurrent Start) (G1 Humongous Allocation)
[2023-02-19T19:00:08.333+0900][49100ms] GC(8032) Using 6 workers of 10 for evacuation
[2023-02-19T19:00:08.333+0900][49100ms] GC(8032)   Pre Evacuate Collection Set: 0.0ms
[2023-02-19T19:00:08.333+0900][49100ms] GC(8032)   Evacuate Collection Set: 0.3ms
[2023-02-19T19:00:08.333+0900][49100ms] GC(8032)   Post Evacuate Collection Set: 0.1ms
[2023-02-19T19:00:08.333+0900][49100ms] GC(8032)   Other: 0.1ms
[2023-02-19T19:00:08.333+0900][49100ms] GC(8032) Eden regions: 0->0(13)
[2023-02-19T19:00:08.333+0900][49100ms] GC(8032) Survivor regions: 0->0(2)
[2023-02-19T19:00:08.333+0900][49100ms] GC(8032) Old regions: 5->5
[2023-02-19T19:00:08.333+0900][49100ms] GC(8032) Humongous regions: 265->265
[2023-02-19T19:00:08.333+0900][49100ms] GC(8032) Metaspace: 8206K(9088K)->8206K(9088K) NonClass: 7386K(7936K)->7386K(7936K) Class: 820K(1152K)->820K(1152K)
[2023-02-19T19:00:08.333+0900][49100ms] GC(8032) Pause Young (Concurrent Start) (G1 Humongous Allocation) 268M->268M(270M) 0.587ms
[2023-02-19T19:00:08.333+0900][49100ms] GC(8032) User=0.00s Sys=0.00s Real=0.00s
[2023-02-19T19:00:08.333+0900][49100ms] GC(8033) Concurrent Cycle
[2023-02-19T19:00:08.333+0900][49100ms] GC(8033) Concurrent Clear Claimed Marks
[2023-02-19T19:00:08.333+0900][49100ms] GC(8033) Concurrent Clear Claimed Marks 0.006ms
[2023-02-19T19:00:08.333+0900][49100ms] GC(8033) Concurrent Scan Root Regions
[2023-02-19T19:00:08.333+0900][49100ms] GC(8033) Concurrent Scan Root Regions 0.003ms
[2023-02-19T19:00:08.333+0900][49100ms] GC(8033) Concurrent Mark (49.100s)
[2023-02-19T19:00:08.333+0900][49101ms] GC(8033) Concurrent Mark From Roots
[2023-02-19T19:00:08.334+0900][49101ms] GC(8033) Using 3 workers of 3 for marking
[2023-02-19T19:00:08.334+0900][49101ms] GC(8034) Pause Young (Normal) (G1 Humongous Allocation)
[2023-02-19T19:00:08.334+0900][49101ms] GC(8034) Using 6 workers of 10 for evacuation
[2023-02-19T19:00:08.334+0900][49101ms] GC(8034)   Pre Evacuate Collection Set: 0.0ms
[2023-02-19T19:00:08.334+0900][49101ms] GC(8034)   Evacuate Collection Set: 0.1ms
[2023-02-19T19:00:08.334+0900][49101ms] GC(8034)   Post Evacuate Collection Set: 0.1ms
[2023-02-19T19:00:08.334+0900][49101ms] GC(8034)   Other: 0.0ms
[2023-02-19T19:00:08.334+0900][49101ms] GC(8034) Eden regions: 0->0(13)
[2023-02-19T19:00:08.334+0900][49101ms] GC(8034) Survivor regions: 0->0(2)
[2023-02-19T19:00:08.334+0900][49101ms] GC(8034) Old regions: 5->5
[2023-02-19T19:00:08.334+0900][49101ms] GC(8034) Humongous regions: 265->265
[2023-02-19T19:00:08.334+0900][49101ms] GC(8034) Metaspace: 8206K(9088K)->8206K(9088K) NonClass: 7386K(7936K)->7386K(7936K) Class: 820K(1152K)->820K(1152K)
[2023-02-19T19:00:08.334+0900][49101ms] GC(8034) Pause Young (Normal) (G1 Humongous Allocation) 268M->268M(270M) 0.339ms
[2023-02-19T19:00:08.334+0900][49101ms] GC(8034) User=0.00s Sys=0.00s Real=0.00s
[2023-02-19T19:00:08.334+0900][49101ms] GC(8035) Using 6 workers of 10 for full compaction
[2023-02-19T19:00:08.334+0900][49101ms] GC(8035) Pause Full (G1 Humongous Allocation)
[2023-02-19T19:00:08.334+0900][49101ms] GC(8035) Phase 1: Mark live objects
[2023-02-19T19:00:08.337+0900][49104ms] GC(8035) Cleaned string and symbol table, strings: 1812 processed, 0 removed, symbols: 16299 processed, 0 removed
[2023-02-19T19:00:08.337+0900][49104ms] GC(8035) Phase 1: Mark live objects 3.366ms
[2023-02-19T19:00:08.337+0900][49104ms] GC(8035) Phase 2: Prepare for compaction
[2023-02-19T19:00:08.338+0900][49105ms] GC(8035) Phase 2: Prepare for compaction 0.803ms
[2023-02-19T19:00:08.338+0900][49105ms] GC(8035) Phase 3: Adjust pointers
[2023-02-19T19:00:08.339+0900][49106ms] GC(8035) Phase 3: Adjust pointers 0.976ms
[2023-02-19T19:00:08.339+0900][49106ms] GC(8035) Phase 4: Compact heap
[2023-02-19T19:00:08.340+0900][49107ms] GC(8035) Phase 4: Compact heap 0.527ms
[2023-02-19T19:00:08.341+0900][49108ms] GC(8035) Eden regions: 0->0(13)
[2023-02-19T19:00:08.341+0900][49108ms] GC(8035) Survivor regions: 0->0(2)
[2023-02-19T19:00:08.341+0900][49108ms] GC(8035) Old regions: 5->5
[2023-02-19T19:00:08.341+0900][49108ms] GC(8035) Humongous regions: 265->265
[2023-02-19T19:00:08.341+0900][49108ms] GC(8035) Metaspace: 8206K(9088K)->8206K(9088K) NonClass: 7386K(7936K)->7386K(7936K) Class: 820K(1152K)->820K(1152K)
[2023-02-19T19:00:08.341+0900][49108ms] GC(8035) Pause Full (G1 Humongous Allocation) 268M->268M(270M) 6.628ms
[2023-02-19T19:00:08.341+0900][49108ms] GC(8035) User=0.02s Sys=0.00s Real=0.01s
[2023-02-19T19:00:08.341+0900][49108ms] GC(8036) Using 6 workers of 10 for full compaction
[2023-02-19T19:00:08.341+0900][49108ms] GC(8036) Pause Full (G1 Humongous Allocation)
[2023-02-19T19:00:08.341+0900][49108ms] GC(8036) Phase 1: Mark live objects
[2023-02-19T19:00:08.344+0900][49111ms] GC(8036) Cleaned string and symbol table, strings: 1812 processed, 0 removed, symbols: 16299 processed, 0 removed
[2023-02-19T19:00:08.344+0900][49111ms] GC(8036) Phase 1: Mark live objects 3.411ms
[2023-02-19T19:00:08.344+0900][49111ms] GC(8036) Phase 2: Prepare for compaction
[2023-02-19T19:00:08.345+0900][49112ms] GC(8036) Phase 2: Prepare for compaction 0.906ms
[2023-02-19T19:00:08.345+0900][49112ms] GC(8036) Phase 3: Adjust pointers
[2023-02-19T19:00:08.346+0900][49113ms] GC(8036) Phase 3: Adjust pointers 0.978ms
[2023-02-19T19:00:08.346+0900][49113ms] GC(8036) Phase 4: Compact heap
[2023-02-19T19:00:08.347+0900][49114ms] GC(8036) Phase 4: Compact heap 0.529ms
[2023-02-19T19:00:08.347+0900][49114ms] GC(8036) Eden regions: 0->0(13)
[2023-02-19T19:00:08.347+0900][49114ms] GC(8036) Survivor regions: 0->0(2)
[2023-02-19T19:00:08.347+0900][49114ms] GC(8036) Old regions: 5->5
[2023-02-19T19:00:08.347+0900][49114ms] GC(8036) Humongous regions: 265->265
[2023-02-19T19:00:08.347+0900][49114ms] GC(8036) Metaspace: 8206K(9088K)->8206K(9088K) NonClass: 7386K(7936K)->7386K(7936K) Class: 820K(1152K)->820K(1152K)
[2023-02-19T19:00:08.347+0900][49114ms] GC(8036) Pause Full (G1 Humongous Allocation) 268M->268M(270M) 6.731ms
[2023-02-19T19:00:08.347+0900][49114ms] GC(8036) User=0.01s Sys=0.01s Real=0.01s
[2023-02-19T19:00:08.348+0900][49115ms] GC(8033) Concurrent Mark From Roots 14.003ms
[2023-02-19T19:00:08.348+0900][49115ms] GC(8037) Pause Young (Normal) (G1 Evacuation Pause)
[2023-02-19T19:00:08.348+0900][49115ms] GC(8037) Using 6 workers of 10 for evacuation
[2023-02-19T19:00:08.348+0900][49115ms] GC(8037)   Pre Evacuate Collection Set: 0.0ms
[2023-02-19T19:00:08.348+0900][49115ms] GC(8037)   Evacuate Collection Set: 0.1ms
[2023-02-19T19:00:08.348+0900][49115ms] GC(8037)   Post Evacuate Collection Set: 0.1ms
[2023-02-19T19:00:08.348+0900][49115ms] GC(8037)   Other: 0.1ms
[2023-02-19T19:00:08.348+0900][49115ms] GC(8037) Eden regions: 0->0(13)
[2023-02-19T19:00:08.348+0900][49115ms] GC(8037) Survivor regions: 0->0(2)
[2023-02-19T19:00:08.348+0900][49115ms] GC(8037) Old regions: 5->5
[2023-02-19T19:00:08.348+0900][49115ms] GC(8037) Humongous regions: 265->265
[2023-02-19T19:00:08.348+0900][49115ms] GC(8037) Metaspace: 8206K(9088K)->8206K(9088K) NonClass: 7386K(7936K)->7386K(7936K) Class: 820K(1152K)->820K(1152K)
[2023-02-19T19:00:08.348+0900][49115ms] GC(8037) Pause Young (Normal) (G1 Evacuation Pause) 268M->268M(270M) 0.342ms
[2023-02-19T19:00:08.348+0900][49115ms] GC(8037) User=0.00s Sys=0.00s Real=0.00s
[2023-02-19T19:00:08.348+0900][49115ms] GC(8038) Using 6 workers of 10 for full compaction
[2023-02-19T19:00:08.348+0900][49115ms] GC(8038) Pause Full (G1 Evacuation Pause)
[2023-02-19T19:00:08.348+0900][49115ms] GC(8038) Phase 1: Mark live objects
[2023-02-19T19:00:08.351+0900][49118ms] GC(8038) Cleaned string and symbol table, strings: 1812 processed, 0 removed, symbols: 16299 processed, 0 removed
[2023-02-19T19:00:08.351+0900][49118ms] GC(8038) Phase 1: Mark live objects 3.010ms
[2023-02-19T19:00:08.351+0900][49118ms] GC(8038) Phase 2: Prepare for compaction
[2023-02-19T19:00:08.351+0900][49118ms] GC(8038) Phase 2: Prepare for compaction 0.336ms
[2023-02-19T19:00:08.351+0900][49118ms] GC(8038) Phase 3: Adjust pointers
[2023-02-19T19:00:08.352+0900][49119ms] GC(8038) Phase 3: Adjust pointers 0.919ms
[2023-02-19T19:00:08.352+0900][49119ms] GC(8038) Phase 4: Compact heap
[2023-02-19T19:00:08.353+0900][49120ms] GC(8038) Phase 4: Compact heap 0.344ms
[2023-02-19T19:00:08.353+0900][49120ms] GC(8038) Eden regions: 0->0(162)
[2023-02-19T19:00:08.353+0900][49120ms] GC(8038) Survivor regions: 0->0(2)
[2023-02-19T19:00:08.353+0900][49120ms] GC(8038) Old regions: 5->5
[2023-02-19T19:00:08.353+0900][49120ms] GC(8038) Humongous regions: 265->0
[2023-02-19T19:00:08.353+0900][49120ms] GC(8038) Metaspace: 8206K(9088K)->8206K(9088K) NonClass: 7386K(7936K)->7386K(7936K) Class: 820K(1152K)->820K(1152K)
[2023-02-19T19:00:08.353+0900][49120ms] GC(8038) Pause Full (G1 Evacuation Pause) 268M->3M(270M) 5.359ms
[2023-02-19T19:00:08.353+0900][49120ms] GC(8038) User=0.02s Sys=0.00s Real=0.00s
[2023-02-19T19:00:08.353+0900][49120ms] GC(8033) Concurrent Mark Abort
[2023-02-19T19:00:08.353+0900][49120ms] GC(8033) Concurrent Cycle 19.986ms
[2023-02-19T19:00:08.391+0900][49158ms] Heap
[2023-02-19T19:00:08.391+0900][49158ms]  garbage-first heap   total 276480K, used 4603K [0x00000000ef200000, 0x0000000100000000)
[2023-02-19T19:00:08.391+0900][49158ms]   region size 1024K, 2 young (2048K), 0 survivors (0K)
[2023-02-19T19:00:08.391+0900][49158ms]  Metaspace       used 8257K, capacity 8518K, committed 9088K, reserved 1056768K
[2023-02-19T19:00:08.391+0900][49158ms]   class space    used 841K, capacity 955K, committed 1152K, reserved 1048576K
