jdk.ActiveSetting {
  startTime = 09:10:05.809
  id = 22245
  name = "threshold"
  value = "0 ns"
  eventThread = "main" (javaThreadId = 1)
}

jdk.ActiveSetting {
  startTime = 09:10:05.809
  duration = 0.0134 ms
  id = 22245
  name = "stackTrace"
  value = "false"
  eventThread = "main" (javaThreadId = 1)
}

jdk.ActiveSetting {
  startTime = 09:10:05.809
  duration = 0.0134 ms
  id = 22245
  name = "enabled"
  value = "true"
  eventThread = "main" (javaThreadId = 1)
}

jdk.ActiveSetting {
  startTime = 09:10:05.809
  duration = 0.0134 ms
  id = 24097
  name = "period"
  value = "1000 ms"
  eventThread = "main" (javaThreadId = 1)
}

jdk.ActiveSetting {
  startTime = 09:10:05.809
  duration = 0.0134 ms
  id = 24097
  name = "enabled"
  value = "true"
  eventThread = "main" (javaThreadId = 1)
}

jdk.ActiveSetting {
  startTime = 09:10:05.809
  duration = 0.0134 ms
  id = 24110
  name = "period"
  value = "5 s"
  eventThread = "main" (javaThreadId = 1)
}

jdk.ActiveSetting {
  startTime = 09:10:05.809
  duration = 0.0134 ms
  id = 24110
  name = "enabled"
  value = "true"
  eventThread = "main" (javaThreadId = 1)
}

jdk.ActiveSetting {
  startTime = 09:10:05.809
  duration = 0.0134 ms
  id = 24342
  name = "period"
  value = "beginChunk"
  eventThread = "main" (javaThreadId = 1)
}

jdk.ActiveSetting {
  startTime = 09:10:05.809
  duration = 0.0134 ms
  id = 24342
  name = "enabled"
  value = "true"
  eventThread = "main" (javaThreadId = 1)
}

jdk.ActiveSetting {
  startTime = 09:10:05.809
  duration = 0.0134 ms
  id = 24348
  name = "period"
  value = "30 s"
  eventThread = "main" (javaThreadId = 1)
}

jdk.ActiveSetting {
  startTime = 09:10:05.809
  duration = 0.0134 ms
  id = 24348
  name = "enabled"
  value = "true"
  eventThread = "main" (javaThreadId = 1)
}

jdk.ActiveSetting {
  startTime = 09:10:05.809
  duration = 0.0134 ms
  id = 24353
  name = "period"
  value = "30 s"
  eventThread = "main" (javaThreadId = 1)
}

jdk.ActiveSetting {
  startTime = 09:10:05.809
  duration = 0.0134 ms
  id = 24353
  name = "enabled"
  value = "true"
  eventThread = "main" (javaThreadId = 1)
}

jdk.ActiveSetting {
  startTime = 09:10:05.809
  duration = 0.0134 ms
  id = 24357
  name = "period"
  value = "30 s"
  eventThread = "main" (javaThreadId = 1)
}

jdk.ActiveSetting {
  startTime = 09:10:05.809
  duration = 0.0134 ms
  id = 24357
  name = "enabled"
  value = "true"
  eventThread = "main" (javaThreadId = 1)
}

jdk.ActiveSetting {
  startTime = 09:10:05.809
  duration = 0.0134 ms
  id = 24364
  name = "period"
  value = "30 s"
  eventThread = "main" (javaThreadId = 1)
}

jdk.ActiveSetting {
  startTime = 09:10:05.809
  duration = 0.0134 ms
  id = 24364
  name = "enabled"
  value = "true"
  eventThread = "main" (javaThreadId = 1)
}

jdk.ActiveSetting {
  startTime = 09:10:05.809
  duration = 0.0134 ms
  id = 2
  name = "stackTrace"
  value = "true"
  eventThread = "main" (javaThreadId = 1)
}

jdk.ActiveSetting {
  startTime = 09:10:05.809
  duration = 0.0134 ms
  id = 2
  name = "enabled"
  value = "true"
  eventThread = "main" (javaThreadId = 1)
}

jdk.ActiveSetting {
  startTime = 09:10:05.809
  duration = 0.0134 ms
  id = 3
  name = "enabled"
  value = "true"
  eventThread = "main" (javaThreadId = 1)
}

jdk.ActiveSetting {
  startTime = 09:10:05.809
  duration = 0.0134 ms
  id = 4
  name = "threshold"
  value = "20 ms"
  eventThread = "main" (javaThreadId = 1)
}

jdk.ActiveSetting {
  startTime = 09:10:05.809
  duration = 0.0134 ms
  id = 4
  name = "stackTrace"
  value = "true"
  eventThread = "main" (javaThreadId = 1)
}

jdk.ActiveSetting {
  startTime = 09:10:05.809
  duration = 0.0134 ms
  id = 4
  name = "enabled"
  value = "true"
  eventThread = "main" (javaThreadId = 1)
}

jdk.ActiveSetting {
  startTime = 09:10:05.809
  duration = 0.0134 ms
  id = 5
  name = "threshold"
  value = "20 ms"
  eventThread = "main" (javaThreadId = 1)
}

jdk.ActiveSetting {
  startTime = 09:10:05.809
  duration = 0.0134 ms
  id = 5
  name = "stackTrace"
  value = "true"
  eventThread = "main" (javaThreadId = 1)
}

jdk.ActiveSetting {
  startTime = 09:10:05.809
  duration = 0.0134 ms
  id = 5
  name = "enabled"
  value = "true"
  eventThread = "main" (javaThreadId = 1)
}

jdk.ActiveSetting {
  startTime = 09:10:05.809
  duration = 0.0134 ms
  id = 6
  name = "threshold"
  value = "20 ms"
  eventThread = "main" (javaThreadId = 1)
}

jdk.ActiveSetting {
  startTime = 09:10:05.809
  duration = 0.0134 ms
  id = 6
  name = "stackTrace"
  value = "true"
  eventThread = "main" (javaThreadId = 1)
}

jdk.ActiveSetting {
  startTime = 09:10:05.809
  duration = 0.0134 ms
  id = 6
  name = "enabled"
  value = "true"
  eventThread = "main" (javaThreadId = 1)
}

jdk.ActiveSetting {
  startTime = 09:10:05.809
  duration = 0.0134 ms
  id = 7
  name = "threshold"
  value = "20 ms"
  eventThread = "main" (javaThreadId = 1)
}

jdk.ActiveSetting {
  startTime = 09:10:05.809
  duration = 0.0134 ms
  id = 7
  name = "stackTrace"
  value = "true"
  eventThread = "main" (javaThreadId = 1)
}

jdk.ActiveSetting {
  startTime = 09:10:05.809
  duration = 0.0134 ms
  id = 7
  name = "enabled"
  value = "true"
  eventThread = "main" (javaThreadId = 1)
}

jdk.ActiveSetting {
  startTime = 09:10:05.809
  duration = 0.0134 ms
  id = 8
  name = "threshold"
  value = "20 ms"
  eventThread = "main" (javaThreadId = 1)
}

jdk.ActiveSetting {
  startTime = 09:10:05.809
  duration = 0.0134 ms
  id = 8
  name = "stackTrace"
  value = "true"
  eventThread = "main" (javaThreadId = 1)
}

jdk.ActiveSetting {
  startTime = 09:10:05.809
  duration = 0.0134 ms
  id = 8
  name = "enabled"
  value = "false"
  eventThread = "main" (javaThreadId = 1)
}

jdk.ActiveSetting {
  startTime = 09:10:05.809
  duration = 0.0134 ms
  id = 9
  name = "stackTrace"
  value = "true"
  eventThread = "main" (javaThreadId = 1)
}

jdk.ActiveSetting {
  startTime = 09:10:05.809
  duration = 0.0134 ms
  id = 9
  name = "enabled"
  value = "true"
  eventThread = "main" (javaThreadId = 1)
}

jdk.ActiveSetting {
  startTime = 09:10:05.809
  duration = 0.0134 ms
  id = 10
  name = "threshold"
  value = "0 ms"
  eventThread = "main" (javaThreadId = 1)
}

jdk.ActiveSetting {
  startTime = 09:10:05.809
  duration = 0.0134 ms
  id = 10
  name = "stackTrace"
  value = "true"
  eventThread = "main" (javaThreadId = 1)
}

jdk.ActiveSetting {
  startTime = 09:10:05.809
  duration = 0.0134 ms
  id = 10
  name = "enabled"
  value = "true"
  eventThread = "main" (javaThreadId = 1)
}

jdk.ActiveSetting {
  startTime = 09:10:05.809
  duration = 0.0134 ms
  id = 11
  name = "threshold"
  value = "0 ms"
  eventThread = "main" (javaThreadId = 1)
}

jdk.ActiveSetting {
  startTime = 09:10:05.809
  duration = 0.0134 ms
  id = 11
  name = "stackTrace"
  value = "true"
  eventThread = "main" (javaThreadId = 1)
}

jdk.ActiveSetting {
  startTime = 09:10:05.809
  duration = 0.0134 ms
  id = 11
  name = "enabled"
  value = "true"
  eventThread = "main" (javaThreadId = 1)
}

jdk.ActiveSetting {
  startTime = 09:10:05.809
  duration = 0.0134 ms
  id = 12
  name = "threshold"
  value = "0 ms"
  eventThread = "main" (javaThreadId = 1)
}

jdk.ActiveSetting {
  startTime = 09:10:05.809
  duration = 0.0134 ms
  id = 12
  name = "stackTrace"
  value = "true"
  eventThread = "main" (javaThreadId = 1)
}

jdk.ActiveSetting {
  startTime = 09:10:05.809
  duration = 0.0134 ms
  id = 12
  name = "enabled"
  value = "true"
  eventThread = "main" (javaThreadId = 1)
}

jdk.ActiveSetting {
  startTime = 09:10:05.809
  duration = 0.0134 ms
  id = 13
  name = "stackTrace"
  value = "true"
  eventThread = "main" (javaThreadId = 1)
}

jdk.ActiveSetting {
  startTime = 09:10:05.809
  duration = 0.0134 ms
  id = 13
  name = "enabled"
  value = "true"
  eventThread = "main" (javaThreadId = 1)
}

jdk.ActiveSetting {
  startTime = 09:10:05.809
  duration = 0.0134 ms
  id = 14
  name = "threshold"
  value = "0 ms"
  eventThread = "main" (javaThreadId = 1)
}

jdk.ActiveSetting {
  startTime = 09:10:05.809
  duration = 0.0134 ms
  id = 14
  name = "stackTrace"
  value = "true"
  eventThread = "main" (javaThreadId = 1)
}

jdk.ActiveSetting {
  startTime = 09:10:05.809
  duration = 0.0134 ms
  id = 14
  name = "enabled"
  value = "false"
  eventThread = "main" (javaThreadId = 1)
}

jdk.ActiveSetting {
  startTime = 09:10:05.809
  duration = 0.0134 ms
  id = 15
  name = "stackTrace"
  value = "true"
  eventThread = "main" (javaThreadId = 1)
}

jdk.ActiveSetting {
  startTime = 09:10:05.809
  duration = 0.0134 ms
  id = 15
  name = "enabled"
  value = "false"
  eventThread = "main" (javaThreadId = 1)
}

jdk.ActiveSetting {
  startTime = 09:10:05.809
  duration = 0.0134 ms
  id = 16
  name = "enabled"
  value = "true"
  eventThread = "main" (javaThreadId = 1)
}

jdk.ActiveSetting {
  startTime = 09:10:05.809
  duration = 0.0134 ms
  id = 17
  name = "threshold"
  value = "0 ms"
  eventThread = "main" (javaThreadId = 1)
}

jdk.ActiveSetting {
  startTime = 09:10:05.809
  duration = 0.0134 ms
  id = 17
  name = "stackTrace"
  value = "true"
  eventThread = "main" (javaThreadId = 1)
}

jdk.ActiveSetting {
  startTime = 09:10:05.809
  duration = 0.0134 ms
  id = 17
  name = "enabled"
  value = "true"
  eventThread = "main" (javaThreadId = 1)
}

jdk.ActiveSetting {
  startTime = 09:10:05.809
  duration = 0.0134 ms
  id = 18
  name = "threshold"
  value = "0 ms"
  eventThread = "main" (javaThreadId = 1)
}

jdk.ActiveSetting {
  startTime = 09:10:05.809
  duration = 0.0134 ms
  id = 18
  name = "stackTrace"
  value = "true"
  eventThread = "main" (javaThreadId = 1)
}

jdk.ActiveSetting {
  startTime = 09:10:05.809
  duration = 0.0134 ms
  id = 18
  name = "enabled"
  value = "true"
  eventThread = "main" (javaThreadId = 1)
}

jdk.ActiveSetting {
  startTime = 09:10:05.809
  duration = 0.0134 ms
  id = 19
  name = "enabled"
  value = "false"
  eventThread = "main" (javaThreadId = 1)
}

jdk.ActiveSetting {
  startTime = 09:10:05.809
  duration = 0.0134 ms
  id = 20
  name = "enabled"
  value = "true"
  eventThread = "main" (javaThreadId = 1)
}

jdk.ActiveSetting {
  startTime = 09:10:05.809
  duration = 0.0134 ms
  id = 21
  name = "enabled"
  value = "true"
  eventThread = "main" (javaThreadId = 1)
}

jdk.ActiveSetting {
  startTime = 09:10:05.809
  duration = 0.0134 ms
  id = 22
  name = "enabled"
  value = "true"
  eventThread = "main" (javaThreadId = 1)
}

jdk.ActiveSetting {
  startTime = 09:10:05.809
  duration = 0.0134 ms
  id = 23
  name = "enabled"
  value = "true"
  eventThread = "main" (javaThreadId = 1)
}

jdk.ActiveSetting {
  startTime = 09:10:05.809
  duration = 0.0134 ms
  id = 24
  name = "enabled"
  value = "true"
  eventThread = "main" (javaThreadId = 1)
}

jdk.ActiveSetting {
  startTime = 09:10:05.809
  duration = 0.0134 ms
  id = 25
  name = "enabled"
  value = "true"
  eventThread = "main" (javaThreadId = 1)
}

jdk.ActiveSetting {
  startTime = 09:10:05.809
  duration = 0.0134 ms
  id = 26
  name = "enabled"
  value = "true"
  eventThread = "main" (javaThreadId = 1)
}

jdk.ActiveSetting {
  startTime = 09:10:05.809
  duration = 0.0134 ms
  id = 27
  name = "enabled"
  value = "true"
  eventThread = "main" (javaThreadId = 1)
}

jdk.ActiveSetting {
  startTime = 09:10:05.809
  duration = 0.0134 ms
  id = 28
  name = "enabled"
  value = "true"
  eventThread = "main" (javaThreadId = 1)
}

jdk.ActiveSetting {
  startTime = 09:10:05.809
  duration = 0.0134 ms
  id = 29
  name = "enabled"
  value = "true"
  eventThread = "main" (javaThreadId = 1)
}

jdk.ActiveSetting {
  startTime = 09:10:05.809
  duration = 0.0134 ms
  id = 30
  name = "stackTrace"
  value = "true"
  eventThread = "main" (javaThreadId = 1)
}

jdk.ActiveSetting {
  startTime = 09:10:05.809
  duration = 0.0134 ms
  id = 30
  name = "enabled"
  value = "true"
  eventThread = "main" (javaThreadId = 1)
}

jdk.ActiveSetting {
  startTime = 09:10:05.809
  duration = 0.0134 ms
  id = 31
  name = "stackTrace"
  value = "true"
  eventThread = "main" (javaThreadId = 1)
}

jdk.ActiveSetting {
  startTime = 09:10:05.809
  duration = 0.0134 ms
  id = 31
  name = "enabled"
  value = "true"
  eventThread = "main" (javaThreadId = 1)
}

jdk.ActiveSetting {
  startTime = 09:10:05.809
  duration = 0.0134 ms
  id = 32
  name = "enabled"
  value = "true"
  eventThread = "main" (javaThreadId = 1)
}

jdk.ActiveSetting {
  startTime = 09:10:05.809
  duration = 0.0134 ms
  id = 33
  name = "enabled"
  value = "true"
  eventThread = "main" (javaThreadId = 1)
}

jdk.ActiveSetting {
  startTime = 09:10:05.809
  duration = 0.0134 ms
  id = 34
  name = "enabled"
  value = "true"
  eventThread = "main" (javaThreadId = 1)
}

jdk.ActiveSetting {
  startTime = 09:10:05.809
  duration = 0.0134 ms
  id = 35
  name = "threshold"
  value = "0 ms"
  eventThread = "main" (javaThreadId = 1)
}

jdk.ActiveSetting {
  startTime = 09:10:05.809
  duration = 0.0134 ms
  id = 35
  name = "enabled"
  value = "true"
  eventThread = "main" (javaThreadId = 1)
}

jdk.ActiveSetting {
  startTime = 09:10:05.809
  duration = 0.0134 ms
  id = 36
  name = "threshold"
  value = "0 ms"
  eventThread = "main" (javaThreadId = 1)
}

jdk.ActiveSetting {
  startTime = 09:10:05.809
  duration = 0.0134 ms
  id = 36
  name = "stackTrace"
  value = "true"
  eventThread = "main" (javaThreadId = 1)
}

jdk.ActiveSetting {
  startTime = 09:10:05.809
  duration = 0.0134 ms
  id = 36
  name = "enabled"
  value = "true"
  eventThread = "main" (javaThreadId = 1)
}

jdk.ActiveSetting {
  startTime = 09:10:05.809
  duration = 0.0134 ms
  id = 37
  name = "threshold"
  value = "0 ms"
  eventThread = "main" (javaThreadId = 1)
}

jdk.ActiveSetting {
  startTime = 09:10:05.809
  duration = 0.0134 ms
  id = 37
  name = "enabled"
  value = "true"
  eventThread = "main" (javaThreadId = 1)
}

jdk.ActiveSetting {
  startTime = 09:10:05.809
  duration = 0.0134 ms
  id = 38
  name = "threshold"
  value = "0 ms"
  eventThread = "main" (javaThreadId = 1)
}

jdk.ActiveSetting {
  startTime = 09:10:05.809
  duration = 0.0134 ms
  id = 38
  name = "enabled"
  value = "true"
  eventThread = "main" (javaThreadId = 1)
}

jdk.ActiveSetting {
  startTime = 09:10:05.809
  duration = 0.0134 ms
  id = 39
  name = "threshold"
  value = "0 ms"
  eventThread = "main" (javaThreadId = 1)
}

jdk.ActiveSetting {
  startTime = 09:10:05.809
  duration = 0.0134 ms
  id = 39
  name = "enabled"
  value = "true"
  eventThread = "main" (javaThreadId = 1)
}

jdk.ActiveSetting {
  startTime = 09:10:05.809
  duration = 0.0134 ms
  id = 40
  name = "threshold"
  value = "0 ms"
  eventThread = "main" (javaThreadId = 1)
}

jdk.ActiveSetting {
  startTime = 09:10:05.809
  duration = 0.0134 ms
  id = 40
  name = "enabled"
  value = "true"
  eventThread = "main" (javaThreadId = 1)
}

jdk.ActiveSetting {
  startTime = 09:10:05.809
  duration = 0.0134 ms
  id = 41
  name = "enabled"
  value = "true"
  eventThread = "main" (javaThreadId = 1)
}

jdk.ActiveSetting {
  startTime = 09:10:05.809
  duration = 0.0134 ms
  id = 42
  name = "enabled"
  value = "true"
  eventThread = "main" (javaThreadId = 1)
}

jdk.ActiveSetting {
  startTime = 09:10:05.809
  duration = 0.0134 ms
  id = 43
  name = "enabled"
  value = "true"
  eventThread = "main" (javaThreadId = 1)
}

jdk.ActiveSetting {
  startTime = 09:10:05.809
  duration = 0.0134 ms
  id = 44
  name = "enabled"
  value = "false"
  eventThread = "main" (javaThreadId = 1)
}

jdk.ActiveSetting {
  startTime = 09:10:05.809
  duration = 0.0134 ms
  id = 45
  name = "enabled"
  value = "true"
  eventThread = "main" (javaThreadId = 1)
}

jdk.ActiveSetting {
  startTime = 09:10:05.809
  duration = 0.0134 ms
  id = 46
  name = "enabled"
  value = "true"
  eventThread = "main" (javaThreadId = 1)
}

jdk.ActiveSetting {
  startTime = 09:10:05.809
  duration = 0.0134 ms
  id = 47
  name = "enabled"
  value = "true"
  eventThread = "main" (javaThreadId = 1)
}

jdk.ActiveSetting {
  startTime = 09:10:05.809
  duration = 0.0134 ms
  id = 48
  name = "enabled"
  value = "true"
  eventThread = "main" (javaThreadId = 1)
}

jdk.ActiveSetting {
  startTime = 09:10:05.809
  duration = 0.0134 ms
  id = 49
  name = "enabled"
  value = "false"
  eventThread = "main" (javaThreadId = 1)
}

jdk.ActiveSetting {
  startTime = 09:10:05.809
  duration = 0.0134 ms
  id = 50
  name = "enabled"
  value = "false"
  eventThread = "main" (javaThreadId = 1)
}

jdk.ActiveSetting {
  startTime = 09:10:05.809
  duration = 0.0134 ms
  id = 51
  name = "enabled"
  value = "true"
  eventThread = "main" (javaThreadId = 1)
}

jdk.ActiveSetting {
  startTime = 09:10:05.809
  duration = 0.0134 ms
  id = 52
  name = "enabled"
  value = "true"
  eventThread = "main" (javaThreadId = 1)
}

jdk.ActiveSetting {
  startTime = 09:10:05.809
  duration = 0.0134 ms
  id = 53
  name = "enabled"
  value = "true"
  eventThread = "main" (javaThreadId = 1)
}

jdk.ActiveSetting {
  startTime = 09:10:05.809
  duration = 0.0134 ms
  id = 54
  name = "threshold"
  value = "0 ms"
  eventThread = "main" (javaThreadId = 1)
}

jdk.ActiveSetting {
  startTime = 09:10:05.809
  duration = 0.0134 ms
  id = 54
  name = "enabled"
  value = "true"
  eventThread = "main" (javaThreadId = 1)
}

jdk.ActiveSetting {
  startTime = 09:10:05.809
  duration = 0.0134 ms
  id = 55
  name = "threshold"
  value = "0 ms"
  eventThread = "main" (javaThreadId = 1)
}

jdk.ActiveSetting {
  startTime = 09:10:05.809
  duration = 0.0134 ms
  id = 55
  name = "enabled"
  value = "true"
  eventThread = "main" (javaThreadId = 1)
}

jdk.ActiveSetting {
  startTime = 09:10:05.809
  duration = 0.0134 ms
  id = 56
  name = "threshold"
  value = "0 ms"
  eventThread = "main" (javaThreadId = 1)
}

jdk.ActiveSetting {
  startTime = 09:10:05.809
  duration = 0.0134 ms
  id = 56
  name = "enabled"
  value = "true"
  eventThread = "main" (javaThreadId = 1)
}

jdk.ActiveSetting {
  startTime = 09:10:05.809
  duration = 0.0134 ms
  id = 57
  name = "threshold"
  value = "0 ms"
  eventThread = "main" (javaThreadId = 1)
}

jdk.ActiveSetting {
  startTime = 09:10:05.809
  duration = 0.0134 ms
  id = 57
  name = "enabled"
  value = "false"
  eventThread = "main" (javaThreadId = 1)
}

jdk.ActiveSetting {
  startTime = 09:10:05.809
  duration = 0.0134 ms
  id = 58
  name = "threshold"
  value = "0 ms"
  eventThread = "main" (javaThreadId = 1)
}

jdk.ActiveSetting {
  startTime = 09:10:05.809
  duration = 0.0134 ms
  id = 58
  name = "enabled"
  value = "false"
  eventThread = "main" (javaThreadId = 1)
}

jdk.ActiveSetting {
  startTime = 09:10:05.809
  duration = 0.0134 ms
  id = 59
  name = "threshold"
  value = "0 ms"
  eventThread = "main" (javaThreadId = 1)
}

jdk.ActiveSetting {
  startTime = 09:10:05.809
  duration = 0.0134 ms
  id = 59
  name = "enabled"
  value = "true"
  eventThread = "main" (javaThreadId = 1)
}

jdk.ActiveSetting {
  startTime = 09:10:05.809
  duration = 0.0134 ms
  id = 60
  name = "threshold"
  value = "0 ms"
  eventThread = "main" (javaThreadId = 1)
}

jdk.ActiveSetting {
  startTime = 09:10:05.809
  duration = 0.0134 ms
  id = 60
  name = "enabled"
  value = "true"
  eventThread = "main" (javaThreadId = 1)
}

jdk.ActiveSetting {
  startTime = 09:10:05.809
  duration = 0.0134 ms
  id = 61
  name = "threshold"
  value = "0 ms"
  eventThread = "main" (javaThreadId = 1)
}

jdk.ActiveSetting {
  startTime = 09:10:05.809
  duration = 0.0134 ms
  id = 61
  name = "enabled"
  value = "true"
  eventThread = "main" (javaThreadId = 1)
}

jdk.ActiveSetting {
  startTime = 09:10:05.809
  duration = 0.0134 ms
  id = 62
  name = "stackTrace"
  value = "true"
  eventThread = "main" (javaThreadId = 1)
}

jdk.ActiveSetting {
  startTime = 09:10:05.809
  duration = 0.0134 ms
  id = 62
  name = "enabled"
  value = "false"
  eventThread = "main" (javaThreadId = 1)
}

jdk.ActiveSetting {
  startTime = 09:10:05.809
  duration = 0.0134 ms
  id = 63
  name = "enabled"
  value = "true"
  eventThread = "main" (javaThreadId = 1)
}

jdk.ActiveSetting {
  startTime = 09:10:05.809
  duration = 0.0134 ms
  id = 64
  name = "enabled"
  value = "false"
  eventThread = "main" (javaThreadId = 1)
}

jdk.ActiveSetting {
  startTime = 09:10:05.809
  duration = 0.0134 ms
  id = 65
  name = "threshold"
  value = "1000 ms"
  eventThread = "main" (javaThreadId = 1)
}

jdk.ActiveSetting {
  startTime = 09:10:05.809
  duration = 0.0134 ms
  id = 65
  name = "enabled"
  value = "true"
  eventThread = "main" (javaThreadId = 1)
}

jdk.ActiveSetting {
  startTime = 09:10:05.809
  duration = 0.0134 ms
  id = 66
  name = "threshold"
  value = "60 s"
  eventThread = "main" (javaThreadId = 1)
}

jdk.ActiveSetting {
  startTime = 09:10:05.809
  duration = 0.0134 ms
  id = 66
  name = "enabled"
  value = "true"
  eventThread = "main" (javaThreadId = 1)
}

jdk.ActiveSetting {
  startTime = 09:10:05.809
  duration = 0.0134 ms
  id = 67
  name = "enabled"
  value = "false"
  eventThread = "main" (javaThreadId = 1)
}

jdk.ActiveSetting {
  startTime = 09:10:05.809
  duration = 0.0134 ms
  id = 68
  name = "enabled"
  value = "false"
  eventThread = "main" (javaThreadId = 1)
}

jdk.ActiveSetting {
  startTime = 09:10:05.809
  duration = 0.0134 ms
  id = 69
  name = "threshold"
  value = "100 ms"
  eventThread = "main" (javaThreadId = 1)
}

jdk.ActiveSetting {
  startTime = 09:10:05.809
  duration = 0.0134 ms
  id = 69
  name = "enabled"
  value = "true"
  eventThread = "main" (javaThreadId = 1)
}

jdk.ActiveSetting {
  startTime = 09:10:05.809
  duration = 0.0134 ms
  id = 70
  name = "enabled"
  value = "true"
  eventThread = "main" (javaThreadId = 1)
}

jdk.ActiveSetting {
  startTime = 09:10:05.809
  duration = 0.0134 ms
  id = 71
  name = "stackTrace"
  value = "false"
  eventThread = "main" (javaThreadId = 1)
}

jdk.ActiveSetting {
  startTime = 09:10:05.809
  duration = 0.0134 ms
  id = 71
  name = "enabled"
  value = "true"
  eventThread = "main" (javaThreadId = 1)
}

jdk.ActiveSetting {
  startTime = 09:10:05.809
  duration = 0.0134 ms
  id = 72
  name = "threshold"
  value = "10 ms"
  eventThread = "main" (javaThreadId = 1)
}

jdk.ActiveSetting {
  startTime = 09:10:05.809
  duration = 0.0134 ms
  id = 72
  name = "enabled"
  value = "true"
  eventThread = "main" (javaThreadId = 1)
}

jdk.ActiveSetting {
  startTime = 09:10:05.809
  duration = 0.0134 ms
  id = 73
  name = "threshold"
  value = "10 ms"
  eventThread = "main" (javaThreadId = 1)
}

jdk.ActiveSetting {
  startTime = 09:10:05.809
  duration = 0.0134 ms
  id = 73
  name = "enabled"
  value = "false"
  eventThread = "main" (javaThreadId = 1)
}

jdk.ActiveSetting {
  startTime = 09:10:05.809
  duration = 0.0134 ms
  id = 74
  name = "threshold"
  value = "10 ms"
  eventThread = "main" (javaThreadId = 1)
}

jdk.ActiveSetting {
  startTime = 09:10:05.809
  duration = 0.0134 ms
  id = 74
  name = "enabled"
  value = "false"
  eventThread = "main" (javaThreadId = 1)
}

jdk.ActiveSetting {
  startTime = 09:10:05.809
  duration = 0.0134 ms
  id = 75
  name = "threshold"
  value = "10 ms"
  eventThread = "main" (javaThreadId = 1)
}

jdk.ActiveSetting {
  startTime = 09:10:05.809
  duration = 0.0134 ms
  id = 75
  name = "enabled"
  value = "false"
  eventThread = "main" (javaThreadId = 1)
}

jdk.ActiveSetting {
  startTime = 09:10:05.809
  duration = 0.0134 ms
  id = 76
  name = "threshold"
  value = "10 ms"
  eventThread = "main" (javaThreadId = 1)
}

jdk.ActiveSetting {
  startTime = 09:10:05.809
  duration = 0.0134 ms
  id = 76
  name = "enabled"
  value = "false"
  eventThread = "main" (javaThreadId = 1)
}

jdk.ActiveSetting {
  startTime = 09:10:05.809
  duration = 0.0134 ms
  id = 77
  name = "threshold"
  value = "10 ms"
  eventThread = "main" (javaThreadId = 1)
}

jdk.ActiveSetting {
  startTime = 09:10:05.809
  duration = 0.0134 ms
  id = 77
  name = "enabled"
  value = "true"
  eventThread = "main" (javaThreadId = 1)
}

jdk.ActiveSetting {
  startTime = 09:10:05.809
  duration = 0.0134 ms
  id = 78
  name = "stackTrace"
  value = "true"
  eventThread = "main" (javaThreadId = 1)
}

jdk.ActiveSetting {
  startTime = 09:10:05.809
  duration = 0.0134 ms
  id = 78
  name = "enabled"
  value = "true"
  eventThread = "main" (javaThreadId = 1)
}

jdk.ActiveSetting {
  startTime = 09:10:05.809
  duration = 0.0134 ms
  id = 79
  name = "stackTrace"
  value = "true"
  eventThread = "main" (javaThreadId = 1)
}

jdk.ActiveSetting {
  startTime = 09:10:05.809
  duration = 0.0134 ms
  id = 79
  name = "enabled"
  value = "false"
  eventThread = "main" (javaThreadId = 1)
}

jdk.ActiveSetting {
  startTime = 09:10:05.809
  duration = 0.0134 ms
  id = 80
  name = "stackTrace"
  value = "true"
  eventThread = "main" (javaThreadId = 1)
}

jdk.ActiveSetting {
  startTime = 09:10:05.809
  duration = 0.0134 ms
  id = 80
  name = "enabled"
  value = "false"
  eventThread = "main" (javaThreadId = 1)
}

jdk.ActiveSetting {
  startTime = 09:10:05.809
  duration = 0.0134 ms
  id = 81
  name = "stackTrace"
  value = "true"
  eventThread = "main" (javaThreadId = 1)
}

jdk.ActiveSetting {
  startTime = 09:10:05.809
  duration = 0.0134 ms
  id = 81
  name = "throttle"
  value = "150/s"
  eventThread = "main" (javaThreadId = 1)
}

jdk.ActiveSetting {
  startTime = 09:10:05.809
  duration = 0.0134 ms
  id = 81
  name = "enabled"
  value = "true"
  eventThread = "main" (javaThreadId = 1)
}

jdk.ActiveSetting {
  startTime = 09:10:05.809
  duration = 0.0134 ms
  id = 82
  name = "stackTrace"
  value = "false"
  eventThread = "main" (javaThreadId = 1)
}

jdk.ActiveSetting {
  startTime = 09:10:05.809
  duration = 0.0134 ms
  id = 82
  name = "cutoff"
  value = "0 ns"
  eventThread = "main" (javaThreadId = 1)
}

jdk.ActiveSetting {
  startTime = 09:10:05.809
  duration = 0.0134 ms
  id = 82
  name = "enabled"
  value = "true"
  eventThread = "main" (javaThreadId = 1)
}

jdk.ActiveSetting {
  startTime = 09:10:05.809
  duration = 0.0134 ms
  id = 83
  name = "enabled"
  value = "true"
  eventThread = "main" (javaThreadId = 1)
}

jdk.ActiveSetting {
  startTime = 09:10:05.809
  duration = 0.0134 ms
  id = 84
  name = "enabled"
  value = "true"
  eventThread = "main" (javaThreadId = 1)
}

jdk.ActiveSetting {
  startTime = 09:10:05.809
  duration = 0.0134 ms
  id = 85
  name = "period"
  value = "beginChunk"
  eventThread = "main" (javaThreadId = 1)
}

jdk.ActiveSetting {
  startTime = 09:10:05.809
  duration = 0.0134 ms
  id = 85
  name = "enabled"
  value = "true"
  eventThread = "main" (javaThreadId = 1)
}

jdk.ActiveSetting {
  startTime = 09:10:05.809
  duration = 0.0134 ms
  id = 86
  name = "period"
  value = "beginChunk"
  eventThread = "main" (javaThreadId = 1)
}

jdk.ActiveSetting {
  startTime = 09:10:05.809
  duration = 0.0134 ms
  id = 86
  name = "enabled"
  value = "true"
  eventThread = "main" (javaThreadId = 1)
}

jdk.ActiveSetting {
  startTime = 09:10:05.809
  duration = 0.0134 ms
  id = 87
  name = "period"
  value = "beginChunk"
  eventThread = "main" (javaThreadId = 1)
}

jdk.ActiveSetting {
  startTime = 09:10:05.809
  duration = 0.0134 ms
  id = 87
  name = "enabled"
  value = "true"
  eventThread = "main" (javaThreadId = 1)
}

jdk.ActiveSetting {
  startTime = 09:10:05.809
  duration = 0.0134 ms
  id = 88
  name = "period"
  value = "beginChunk"
  eventThread = "main" (javaThreadId = 1)
}

jdk.ActiveSetting {
  startTime = 09:10:05.809
  duration = 0.0134 ms
  id = 88
  name = "enabled"
  value = "true"
  eventThread = "main" (javaThreadId = 1)
}

jdk.ActiveSetting {
  startTime = 09:10:05.809
  duration = 0.0134 ms
  id = 89
  name = "period"
  value = "beginChunk"
  eventThread = "main" (javaThreadId = 1)
}

jdk.ActiveSetting {
  startTime = 09:10:05.809
  duration = 0.0134 ms
  id = 89
  name = "enabled"
  value = "true"
  eventThread = "main" (javaThreadId = 1)
}

jdk.ActiveSetting {
  startTime = 09:10:05.809
  duration = 0.0134 ms
  id = 90
  name = "period"
  value = "endChunk"
  eventThread = "main" (javaThreadId = 1)
}

jdk.ActiveSetting {
  startTime = 09:10:05.809
  duration = 0.0134 ms
  id = 90
  name = "enabled"
  value = "true"
  eventThread = "main" (javaThreadId = 1)
}

jdk.ActiveSetting {
  startTime = 09:10:05.809
  duration = 0.0134 ms
  id = 91
  name = "period"
  value = "beginChunk"
  eventThread = "main" (javaThreadId = 1)
}

jdk.ActiveSetting {
  startTime = 09:10:05.809
  duration = 0.0134 ms
  id = 91
  name = "enabled"
  value = "true"
  eventThread = "main" (javaThreadId = 1)
}

jdk.ActiveSetting {
  startTime = 09:10:05.809
  duration = 0.0134 ms
  id = 92
  name = "period"
  value = "beginChunk"
  eventThread = "main" (javaThreadId = 1)
}

jdk.ActiveSetting {
  startTime = 09:10:05.809
  duration = 0.0134 ms
  id = 92
  name = "enabled"
  value = "true"
  eventThread = "main" (javaThreadId = 1)
}

jdk.ActiveSetting {
  startTime = 09:10:05.809
  duration = 0.0134 ms
  id = 93
  name = "period"
  value = "1000 ms"
  eventThread = "main" (javaThreadId = 1)
}

jdk.ActiveSetting {
  startTime = 09:10:05.809
  duration = 0.0134 ms
  id = 93
  name = "enabled"
  value = "true"
  eventThread = "main" (javaThreadId = 1)
}

jdk.ActiveSetting {
  startTime = 09:10:05.809
  duration = 0.0134 ms
  id = 94
  name = "period"
  value = "10 s"
  eventThread = "main" (javaThreadId = 1)
}

jdk.ActiveSetting {
  startTime = 09:10:05.809
  duration = 0.0134 ms
  id = 94
  name = "enabled"
  value = "true"
  eventThread = "main" (javaThreadId = 1)
}

jdk.ActiveSetting {
  startTime = 09:10:05.809
  duration = 0.0134 ms
  id = 95
  name = "period"
  value = "10 s"
  eventThread = "main" (javaThreadId = 1)
}

jdk.ActiveSetting {
  startTime = 09:10:05.809
  duration = 0.0134 ms
  id = 95
  name = "enabled"
  value = "true"
  eventThread = "main" (javaThreadId = 1)
}

jdk.ActiveSetting {
  startTime = 09:10:05.809
  duration = 0.0134 ms
  id = 96
  name = "period"
  value = "5 s"
  eventThread = "main" (javaThreadId = 1)
}

jdk.ActiveSetting {
  startTime = 09:10:05.809
  duration = 0.0134 ms
  id = 96
  name = "enabled"
  value = "true"
  eventThread = "main" (javaThreadId = 1)
}

jdk.ActiveSetting {
  startTime = 09:10:05.809
  duration = 0.0134 ms
  id = 97
  name = "period"
  value = "1000 ms"
  eventThread = "main" (javaThreadId = 1)
}

jdk.ActiveSetting {
  startTime = 09:10:05.809
  duration = 0.0134 ms
  id = 97
  name = "enabled"
  value = "true"
  eventThread = "main" (javaThreadId = 1)
}

jdk.ActiveSetting {
  startTime = 09:10:05.809
  duration = 0.0134 ms
  id = 98
  name = "period"
  value = "1000 ms"
  eventThread = "main" (javaThreadId = 1)
}

jdk.ActiveSetting {
  startTime = 09:10:05.809
  duration = 0.0134 ms
  id = 98
  name = "enabled"
  value = "true"
  eventThread = "main" (javaThreadId = 1)
}

jdk.ActiveSetting {
  startTime = 09:10:05.809
  duration = 0.0134 ms
  id = 99
  name = "period"
  value = "everyChunk"
  eventThread = "main" (javaThreadId = 1)
}

jdk.ActiveSetting {
  startTime = 09:10:05.809
  duration = 0.0134 ms
  id = 99
  name = "enabled"
  value = "true"
  eventThread = "main" (javaThreadId = 1)
}

jdk.ActiveSetting {
  startTime = 09:10:05.809
  duration = 0.0134 ms
  id = 100
  name = "period"
  value = "10 s"
  eventThread = "main" (javaThreadId = 1)
}

jdk.ActiveSetting {
  startTime = 09:10:05.809
  duration = 0.0134 ms
  id = 100
  name = "enabled"
  value = "true"
  eventThread = "main" (javaThreadId = 1)
}

jdk.ActiveSetting {
  startTime = 09:10:05.809
  duration = 0.0134 ms
  id = 101
  name = "period"
  value = "10 s"
  eventThread = "main" (javaThreadId = 1)
}

jdk.ActiveSetting {
  startTime = 09:10:05.809
  duration = 0.0134 ms
  id = 101
  name = "enabled"
  value = "true"
  eventThread = "main" (javaThreadId = 1)
}

jdk.ActiveSetting {
  startTime = 09:10:05.809
  duration = 0.0134 ms
  id = 102
  name = "period"
  value = "10 s"
  eventThread = "main" (javaThreadId = 1)
}

jdk.ActiveSetting {
  startTime = 09:10:05.809
  duration = 0.0134 ms
  id = 102
  name = "enabled"
  value = "true"
  eventThread = "main" (javaThreadId = 1)
}

jdk.ActiveSetting {
  startTime = 09:10:05.809
  duration = 0.0134 ms
  id = 103
  name = "period"
  value = "10 s"
  eventThread = "main" (javaThreadId = 1)
}

jdk.ActiveSetting {
  startTime = 09:10:05.809
  duration = 0.0134 ms
  id = 103
  name = "enabled"
  value = "true"
  eventThread = "main" (javaThreadId = 1)
}

jdk.ActiveSetting {
  startTime = 09:10:05.809
  duration = 0.0134 ms
  id = 104
  name = "period"
  value = "10 s"
  eventThread = "main" (javaThreadId = 1)
}

jdk.ActiveSetting {
  startTime = 09:10:05.809
  duration = 0.0134 ms
  id = 104
  name = "enabled"
  value = "true"
  eventThread = "main" (javaThreadId = 1)
}

jdk.ActiveSetting {
  startTime = 09:10:05.809
  duration = 0.0134 ms
  id = 105
  name = "period"
  value = "everyChunk"
  eventThread = "main" (javaThreadId = 1)
}

jdk.ActiveSetting {
  startTime = 09:10:05.809
  duration = 0.0134 ms
  id = 105
  name = "enabled"
  value = "true"
  eventThread = "main" (javaThreadId = 1)
}

jdk.ActiveSetting {
  startTime = 09:10:05.809
  duration = 0.0134 ms
  id = 106
  name = "period"
  value = "everyChunk"
  eventThread = "main" (javaThreadId = 1)
}

jdk.ActiveSetting {
  startTime = 09:10:05.809
  duration = 0.0134 ms
  id = 106
  name = "enabled"
  value = "true"
  eventThread = "main" (javaThreadId = 1)
}

jdk.ActiveSetting {
  startTime = 09:10:05.809
  duration = 0.0134 ms
  id = 107
  name = "period"
  value = "20 ms"
  eventThread = "main" (javaThreadId = 1)
}

jdk.ActiveSetting {
  startTime = 09:10:05.809
  duration = 0.0134 ms
  id = 107
  name = "enabled"
  value = "true"
  eventThread = "main" (javaThreadId = 1)
}

jdk.ActiveSetting {
  startTime = 09:10:05.809
  duration = 0.0134 ms
  id = 108
  name = "period"
  value = "20 ms"
  eventThread = "main" (javaThreadId = 1)
}

jdk.ActiveSetting {
  startTime = 09:10:05.809
  duration = 0.0134 ms
  id = 108
  name = "enabled"
  value = "true"
  eventThread = "main" (javaThreadId = 1)
}

jdk.ActiveSetting {
  startTime = 09:10:05.809
  duration = 0.0134 ms
  id = 109
  name = "period"
  value = "everyChunk"
  eventThread = "main" (javaThreadId = 1)
}

jdk.ActiveSetting {
  startTime = 09:10:05.809
  duration = 0.0134 ms
  id = 109
  name = "enabled"
  value = "true"
  eventThread = "main" (javaThreadId = 1)
}

jdk.ActiveSetting {
  startTime = 09:10:05.809
  duration = 0.0134 ms
  id = 110
  name = "period"
  value = "everyChunk"
  eventThread = "main" (javaThreadId = 1)
}

jdk.ActiveSetting {
  startTime = 09:10:05.809
  duration = 0.0134 ms
  id = 110
  name = "enabled"
  value = "true"
  eventThread = "main" (javaThreadId = 1)
}

jdk.ActiveSetting {
  startTime = 09:10:05.809
  duration = 0.0134 ms
  id = 111
  name = "period"
  value = "endChunk"
  eventThread = "main" (javaThreadId = 1)
}

jdk.ActiveSetting {
  startTime = 09:10:05.809
  duration = 0.0134 ms
  id = 111
  name = "enabled"
  value = "true"
  eventThread = "main" (javaThreadId = 1)
}

jdk.ActiveSetting {
  startTime = 09:10:05.809
  duration = 0.0134 ms
  id = 112
  name = "period"
  value = "endChunk"
  eventThread = "main" (javaThreadId = 1)
}

jdk.ActiveSetting {
  startTime = 09:10:05.809
  duration = 0.0134 ms
  id = 112
  name = "enabled"
  value = "true"
  eventThread = "main" (javaThreadId = 1)
}

jdk.ActiveSetting {
  startTime = 09:10:05.809
  duration = 0.0134 ms
  id = 113
  name = "period"
  value = "1000 ms"
  eventThread = "main" (javaThreadId = 1)
}

jdk.ActiveSetting {
  startTime = 09:10:05.809
  duration = 0.0134 ms
  id = 113
  name = "enabled"
  value = "true"
  eventThread = "main" (javaThreadId = 1)
}

jdk.ActiveSetting {
  startTime = 09:10:05.809
  duration = 0.0134 ms
  id = 114
  name = "period"
  value = "beginChunk"
  eventThread = "main" (javaThreadId = 1)
}

jdk.ActiveSetting {
  startTime = 09:10:05.809
  duration = 0.0134 ms
  id = 114
  name = "enabled"
  value = "true"
  eventThread = "main" (javaThreadId = 1)
}

jdk.ActiveSetting {
  startTime = 09:10:05.809
  duration = 0.0134 ms
  id = 115
  name = "period"
  value = "everyChunk"
  eventThread = "main" (javaThreadId = 1)
}

jdk.ActiveSetting {
  startTime = 09:10:05.809
  duration = 0.0134 ms
  id = 115
  name = "enabled"
  value = "true"
  eventThread = "main" (javaThreadId = 1)
}

jdk.ActiveSetting {
  startTime = 09:10:05.809
  duration = 0.0134 ms
  id = 116
  name = "period"
  value = "beginChunk"
  eventThread = "main" (javaThreadId = 1)
}

jdk.ActiveSetting {
  startTime = 09:10:05.809
  duration = 0.0134 ms
  id = 116
  name = "enabled"
  value = "true"
  eventThread = "main" (javaThreadId = 1)
}

jdk.ActiveSetting {
  startTime = 09:10:05.809
  duration = 0.0134 ms
  id = 117
  name = "period"
  value = "everyChunk"
  eventThread = "main" (javaThreadId = 1)
}

jdk.ActiveSetting {
  startTime = 09:10:05.809
  duration = 0.0134 ms
  id = 117
  name = "enabled"
  value = "true"
  eventThread = "main" (javaThreadId = 1)
}

jdk.ActiveSetting {
  startTime = 09:10:05.809
  duration = 0.0134 ms
  id = 118
  name = "period"
  value = "beginChunk"
  eventThread = "main" (javaThreadId = 1)
}

jdk.ActiveSetting {
  startTime = 09:10:05.809
  duration = 0.0134 ms
  id = 118
  name = "enabled"
  value = "true"
  eventThread = "main" (javaThreadId = 1)
}

jdk.ActiveSetting {
  startTime = 09:10:05.809
  duration = 0.0134 ms
  id = 119
  name = "period"
  value = "beginChunk"
  eventThread = "main" (javaThreadId = 1)
}

jdk.ActiveSetting {
  startTime = 09:10:05.809
  duration = 0.0134 ms
  id = 119
  name = "enabled"
  value = "true"
  eventThread = "main" (javaThreadId = 1)
}

jdk.ActiveSetting {
  startTime = 09:10:05.809
  duration = 0.0134 ms
  id = 120
  name = "period"
  value = "beginChunk"
  eventThread = "main" (javaThreadId = 1)
}

jdk.ActiveSetting {
  startTime = 09:10:05.809
  duration = 0.0134 ms
  id = 120
  name = "enabled"
  value = "true"
  eventThread = "main" (javaThreadId = 1)
}

jdk.ActiveSetting {
  startTime = 09:10:05.809
  duration = 0.0134 ms
  id = 121
  name = "period"
  value = "beginChunk"
  eventThread = "main" (javaThreadId = 1)
}

jdk.ActiveSetting {
  startTime = 09:10:05.809
  duration = 0.0134 ms
  id = 121
  name = "enabled"
  value = "true"
  eventThread = "main" (javaThreadId = 1)
}

jdk.ActiveSetting {
  startTime = 09:10:05.809
  duration = 0.0134 ms
  id = 122
  name = "period"
  value = "beginChunk"
  eventThread = "main" (javaThreadId = 1)
}

jdk.ActiveSetting {
  startTime = 09:10:05.809
  duration = 0.0134 ms
  id = 122
  name = "enabled"
  value = "true"
  eventThread = "main" (javaThreadId = 1)
}

jdk.ActiveSetting {
  startTime = 09:10:05.809
  duration = 0.0134 ms
  id = 123
  name = "period"
  value = "beginChunk"
  eventThread = "main" (javaThreadId = 1)
}

jdk.ActiveSetting {
  startTime = 09:10:05.809
  duration = 0.0134 ms
  id = 123
  name = "enabled"
  value = "true"
  eventThread = "main" (javaThreadId = 1)
}

jdk.ActiveSetting {
  startTime = 09:10:05.809
  duration = 0.0134 ms
  id = 124
  name = "period"
  value = "beginChunk"
  eventThread = "main" (javaThreadId = 1)
}

jdk.ActiveSetting {
  startTime = 09:10:05.809
  duration = 0.0134 ms
  id = 124
  name = "enabled"
  value = "true"
  eventThread = "main" (javaThreadId = 1)
}

jdk.ActiveSetting {
  startTime = 09:10:05.809
  duration = 0.0134 ms
  id = 125
  name = "period"
  value = "beginChunk"
  eventThread = "main" (javaThreadId = 1)
}

jdk.ActiveSetting {
  startTime = 09:10:05.809
  duration = 0.0134 ms
  id = 125
  name = "enabled"
  value = "true"
  eventThread = "main" (javaThreadId = 1)
}

jdk.ActiveSetting {
  startTime = 09:10:05.809
  duration = 0.0134 ms
  id = 126
  name = "period"
  value = "everyChunk"
  eventThread = "main" (javaThreadId = 1)
}

jdk.ActiveSetting {
  startTime = 09:10:05.809
  duration = 0.0134 ms
  id = 126
  name = "enabled"
  value = "false"
  eventThread = "main" (javaThreadId = 1)
}

jdk.ActiveSetting {
  startTime = 09:10:05.809
  duration = 0.0134 ms
  id = 127
  name = "period"
  value = "everyChunk"
  eventThread = "main" (javaThreadId = 1)
}

jdk.ActiveSetting {
  startTime = 09:10:05.809
  duration = 0.0134 ms
  id = 127
  name = "enabled"
  value = "false"
  eventThread = "main" (javaThreadId = 1)
}

jdk.ActiveSetting {
  startTime = 09:10:05.809
  duration = 0.0134 ms
  id = 128
  name = "period"
  value = "everyChunk"
  eventThread = "main" (javaThreadId = 1)
}

jdk.ActiveSetting {
  startTime = 09:10:05.809
  duration = 0.0134 ms
  id = 128
  name = "enabled"
  value = "true"
  eventThread = "main" (javaThreadId = 1)
}

jdk.ActiveSetting {
  startTime = 09:10:05.809
  duration = 0.0134 ms
  id = 129
  name = "period"
  value = "beginChunk"
  eventThread = "main" (javaThreadId = 1)
}

jdk.ActiveSetting {
  startTime = 09:10:05.809
  duration = 0.0134 ms
  id = 129
  name = "enabled"
  value = "true"
  eventThread = "main" (javaThreadId = 1)
}

jdk.ActiveSetting {
  startTime = 09:10:05.809
  duration = 0.0134 ms
  id = 130
  name = "period"
  value = "beginChunk"
  eventThread = "main" (javaThreadId = 1)
}

jdk.ActiveSetting {
  startTime = 09:10:05.809
  duration = 0.0134 ms
  id = 130
  name = "enabled"
  value = "true"
  eventThread = "main" (javaThreadId = 1)
}

jdk.ActiveSetting {
  startTime = 09:10:05.809
  duration = 0.0134 ms
  id = 131
  name = "period"
  value = "beginChunk"
  eventThread = "main" (javaThreadId = 1)
}

jdk.ActiveSetting {
  startTime = 09:10:05.809
  duration = 0.0134 ms
  id = 131
  name = "enabled"
  value = "true"
  eventThread = "main" (javaThreadId = 1)
}

jdk.ActiveSetting {
  startTime = 09:10:05.809
  duration = 0.0134 ms
  id = 132
  name = "period"
  value = "beginChunk"
  eventThread = "main" (javaThreadId = 1)
}

jdk.ActiveSetting {
  startTime = 09:10:05.809
  duration = 0.0134 ms
  id = 132
  name = "enabled"
  value = "true"
  eventThread = "main" (javaThreadId = 1)
}

jdk.ActiveSetting {
  startTime = 09:10:05.809
  duration = 0.0134 ms
  id = 133
  name = "threshold"
  value = "0 ms"
  eventThread = "main" (javaThreadId = 1)
}

jdk.ActiveSetting {
  startTime = 09:10:05.809
  duration = 0.0134 ms
  id = 133
  name = "enabled"
  value = "true"
  eventThread = "main" (javaThreadId = 1)
}

jdk.ActiveSetting {
  startTime = 09:10:05.809
  duration = 0.0134 ms
  id = 134
  name = "threshold"
  value = "1 ms"
  eventThread = "main" (javaThreadId = 1)
}

jdk.ActiveSetting {
  startTime = 09:10:05.809
  duration = 0.0134 ms
  id = 134
  name = "stackTrace"
  value = "true"
  eventThread = "main" (javaThreadId = 1)
}

jdk.ActiveSetting {
  startTime = 09:10:05.809
  duration = 0.0134 ms
  id = 134
  name = "enabled"
  value = "true"
  eventThread = "main" (javaThreadId = 1)
}

jdk.ActiveSetting {
  startTime = 09:10:05.809
  duration = 0.0134 ms
  id = 135
  name = "threshold"
  value = "0 ms"
  eventThread = "main" (javaThreadId = 1)
}

jdk.ActiveSetting {
  startTime = 09:10:05.809
  duration = 0.0134 ms
  id = 135
  name = "enabled"
  value = "true"
  eventThread = "main" (javaThreadId = 1)
}

jdk.ActiveSetting {
  startTime = 09:10:05.809
  duration = 0.0134 ms
  id = 136
  name = "threshold"
  value = "0 ms"
  eventThread = "main" (javaThreadId = 1)
}

jdk.ActiveSetting {
  startTime = 09:10:05.809
  duration = 0.0134 ms
  id = 136
  name = "enabled"
  value = "true"
  eventThread = "main" (javaThreadId = 1)
}

jdk.ActiveSetting {
  startTime = 09:10:05.809
  duration = 0.0134 ms
  id = 137
  name = "threshold"
  value = "0 ms"
  eventThread = "main" (javaThreadId = 1)
}

jdk.ActiveSetting {
  startTime = 09:10:05.809
  duration = 0.0134 ms
  id = 137
  name = "enabled"
  value = "false"
  eventThread = "main" (javaThreadId = 1)
}

jdk.ActiveSetting {
  startTime = 09:10:05.809
  duration = 0.0134 ms
  id = 138
  name = "threshold"
  value = "0 ms"
  eventThread = "main" (javaThreadId = 1)
}

jdk.ActiveSetting {
  startTime = 09:10:05.809
  duration = 0.0134 ms
  id = 138
  name = "enabled"
  value = "false"
  eventThread = "main" (javaThreadId = 1)
}

jdk.ActiveSetting {
  startTime = 09:10:05.809
  duration = 0.0134 ms
  id = 139
  name = "threshold"
  value = "0 ms"
  eventThread = "main" (javaThreadId = 1)
}

jdk.ActiveSetting {
  startTime = 09:10:05.809
  duration = 0.0134 ms
  id = 139
  name = "enabled"
  value = "false"
  eventThread = "main" (javaThreadId = 1)
}

jdk.ActiveSetting {
  startTime = 09:10:05.809
  duration = 0.0134 ms
  id = 140
  name = "threshold"
  value = "0 ms"
  eventThread = "main" (javaThreadId = 1)
}

jdk.ActiveSetting {
  startTime = 09:10:05.809
  duration = 0.0134 ms
  id = 140
  name = "enabled"
  value = "true"
  eventThread = "main" (javaThreadId = 1)
}

jdk.ActiveSetting {
  startTime = 09:10:05.809
  duration = 0.0134 ms
  id = 141
  name = "threshold"
  value = "0 ms"
  eventThread = "main" (javaThreadId = 1)
}

jdk.ActiveSetting {
  startTime = 09:10:05.809
  duration = 0.0134 ms
  id = 141
  name = "enabled"
  value = "true"
  eventThread = "main" (javaThreadId = 1)
}

jdk.ActiveSetting {
  startTime = 09:10:05.809
  duration = 0.0134 ms
  id = 142
  name = "enabled"
  value = "false"
  eventThread = "main" (javaThreadId = 1)
}

jdk.ActiveSetting {
  startTime = 09:10:05.809
  duration = 0.0134 ms
  id = 143
  name = "period"
  value = "everyChunk"
  eventThread = "main" (javaThreadId = 1)
}

jdk.ActiveSetting {
  startTime = 09:10:05.809
  duration = 0.0134 ms
  id = 143
  name = "enabled"
  value = "false"
  eventThread = "main" (javaThreadId = 1)
}

jdk.ActiveSetting {
  startTime = 09:10:05.809
  duration = 0.0134 ms
  id = 144
  name = "threshold"
  value = "0 ns"
  eventThread = "main" (javaThreadId = 1)
}

jdk.ActiveSetting {
  startTime = 09:10:05.809
  duration = 0.0134 ms
  id = 144
  name = "enabled"
  value = "false"
  eventThread = "main" (javaThreadId = 1)
}

jdk.ActiveSetting {
  startTime = 09:10:05.809
  duration = 0.0134 ms
  id = 145
  name = "threshold"
  value = "0 ns"
  eventThread = "main" (javaThreadId = 1)
}

jdk.ActiveSetting {
  startTime = 09:10:05.809
  duration = 0.0134 ms
  id = 145
  name = "stackTrace"
  value = "true"
  eventThread = "main" (javaThreadId = 1)
}

jdk.ActiveSetting {
  startTime = 09:10:05.809
  duration = 0.0134 ms
  id = 145
  name = "enabled"
  value = "true"
  eventThread = "main" (javaThreadId = 1)
}

jdk.ActiveSetting {
  startTime = 09:10:05.809
  duration = 0.0134 ms
  id = 146
  name = "threshold"
  value = "1 s"
  eventThread = "main" (javaThreadId = 1)
}

jdk.ActiveSetting {
  startTime = 09:10:05.809
  duration = 0.0134 ms
  id = 146
  name = "stackTrace"
  value = "true"
  eventThread = "main" (javaThreadId = 1)
}

jdk.ActiveSetting {
  startTime = 09:10:05.809
  duration = 0.0134 ms
  id = 146
  name = "enabled"
  value = "true"
  eventThread = "main" (javaThreadId = 1)
}

jdk.ActiveSetting {
  startTime = 09:10:05.809
  duration = 0.0134 ms
  id = 15702
  name = "threshold"
  value = "0 ns"
  eventThread = "main" (javaThreadId = 1)
}

jdk.ActiveSetting {
  startTime = 09:10:05.809
  duration = 0.0134 ms
  id = 15702
  name = "stackTrace"
  value = "true"
  eventThread = "main" (javaThreadId = 1)
}

jdk.ActiveSetting {
  startTime = 09:10:05.809
  duration = 0.0134 ms
  id = 15702
  name = "enabled"
  value = "true"
  eventThread = "main" (javaThreadId = 1)
}

jdk.ActiveSetting {
  startTime = 09:10:05.809
  duration = 0.0134 ms
  id = 13575
  name = "period"
  value = "everyChunk"
  eventThread = "main" (javaThreadId = 1)
}

jdk.ActiveSetting {
  startTime = 09:10:05.809
  duration = 0.0134 ms
  id = 13575
  name = "enabled"
  value = "true"
  eventThread = "main" (javaThreadId = 1)
}

jdk.ActiveSetting {
  startTime = 09:10:05.809
  duration = 0.0134 ms
  id = 13574
  name = "period"
  value = "endChunk"
  eventThread = "main" (javaThreadId = 1)
}

jdk.ActiveSetting {
  startTime = 09:10:05.809
  duration = 0.0134 ms
  id = 13574
  name = "enabled"
  value = "true"
  eventThread = "main" (javaThreadId = 1)
}

jdk.ActiveSetting {
  startTime = 09:10:05.809
  duration = 0.0134 ms
  id = 22247
  name = "threshold"
  value = "0 ns"
  eventThread = "main" (javaThreadId = 1)
}

jdk.ActiveSetting {
  startTime = 09:10:05.809
  duration = 0.0134 ms
  id = 22247
  name = "stackTrace"
  value = "false"
  eventThread = "main" (javaThreadId = 1)
}

jdk.ActiveSetting {
  startTime = 09:10:05.809
  duration = 0.0134 ms
  id = 22247
  name = "enabled"
  value = "true"
  eventThread = "main" (javaThreadId = 1)
}

jdk.ActiveSetting {
  startTime = 09:10:05.809
  duration = 0.0134 ms
  id = 22245
  name = "threshold"
  value = "0 ns"
  eventThread = "main" (javaThreadId = 1)
}

jdk.ActiveSetting {
  startTime = 09:10:05.809
  duration = 0.0134 ms
  id = 22245
  name = "stackTrace"
  value = "false"
  eventThread = "main" (javaThreadId = 1)
}

jdk.ActiveSetting {
  startTime = 09:10:05.809
  duration = 0.0134 ms
  id = 22245
  name = "enabled"
  value = "true"
  eventThread = "main" (javaThreadId = 1)
}

jdk.ActiveSetting {
  startTime = 09:10:05.809
  duration = 0.0134 ms
  id = 24097
  name = "period"
  value = "1000 ms"
  eventThread = "main" (javaThreadId = 1)
}

jdk.ActiveSetting {
  startTime = 09:10:05.809
  duration = 0.0134 ms
  id = 24097
  name = "enabled"
  value = "true"
  eventThread = "main" (javaThreadId = 1)
}

jdk.ActiveSetting {
  startTime = 09:10:05.809
  duration = 0.0134 ms
  id = 24110
  name = "period"
  value = "5 s"
  eventThread = "main" (javaThreadId = 1)
}

jdk.ActiveSetting {
  startTime = 09:10:05.809
  duration = 0.0134 ms
  id = 24110
  name = "enabled"
  value = "true"
  eventThread = "main" (javaThreadId = 1)
}

jdk.ActiveSetting {
  startTime = 09:10:05.809
  duration = 0.0134 ms
  id = 24342
  name = "period"
  value = "beginChunk"
  eventThread = "main" (javaThreadId = 1)
}

jdk.ActiveSetting {
  startTime = 09:10:05.809
  duration = 0.0134 ms
  id = 24342
  name = "enabled"
  value = "true"
  eventThread = "main" (javaThreadId = 1)
}

jdk.ActiveSetting {
  startTime = 09:10:05.809
  duration = 0.0134 ms
  id = 24348
  name = "period"
  value = "30 s"
  eventThread = "main" (javaThreadId = 1)
}

jdk.ActiveSetting {
  startTime = 09:10:05.809
  duration = 0.0134 ms
  id = 24348
  name = "enabled"
  value = "true"
  eventThread = "main" (javaThreadId = 1)
}

jdk.ActiveSetting {
  startTime = 09:10:05.809
  duration = 0.0134 ms
  id = 24353
  name = "period"
  value = "30 s"
  eventThread = "main" (javaThreadId = 1)
}

jdk.ActiveSetting {
  startTime = 09:10:05.809
  duration = 0.0134 ms
  id = 24353
  name = "enabled"
  value = "true"
  eventThread = "main" (javaThreadId = 1)
}

jdk.ActiveSetting {
  startTime = 09:10:05.809
  duration = 0.0134 ms
  id = 24357
  name = "period"
  value = "30 s"
  eventThread = "main" (javaThreadId = 1)
}

jdk.ActiveSetting {
  startTime = 09:10:05.809
  duration = 0.0134 ms
  id = 24357
  name = "enabled"
  value = "true"
  eventThread = "main" (javaThreadId = 1)
}

jdk.ActiveSetting {
  startTime = 09:10:05.809
  duration = 0.0134 ms
  id = 24364
  name = "period"
  value = "30 s"
  eventThread = "main" (javaThreadId = 1)
}

jdk.ActiveSetting {
  startTime = 09:10:05.809
  duration = 0.0134 ms
  id = 24364
  name = "enabled"
  value = "true"
  eventThread = "main" (javaThreadId = 1)
}

jdk.ActiveRecording {
  startTime = 09:10:05.809
  id = 1
  name = "1"
  destination = "/home/kogakz/gitouhon2022-2nd/userEvent/recording.jfr"
  maxAge = 106751991167 d 7 h
  flushInterval = 1.00 s
  maxSize = 0 bytes
  recordingStart = 09:10:05.809
  recordingDuration = 106751991167 d 7 h
  eventThread = "main" (javaThreadId = 1)
}

jdk.JavaThreadStatistics {
  startTime = 09:10:05.809
  activeCount = 5
  daemonCount = 4
  accumulatedCount = 5
  peakCount = 5
}

jdk.PhysicalMemory {
  startTime = 09:10:05.809
  totalSize = 3.7 GB
  usedSize = 0 bytes
}

jdk.ContainerConfiguration {
  startTime = 09:10:05.810
  containerType = "cgroupv1"
  cpuSlicePeriod = 100 ms
  cpuQuota = -0.00100 ms
  cpuShares = -1
  effectiveCpuCount = 12
  memorySoftLimit = -1 byte
  memoryLimit = -1 byte
  swapMemoryLimit = -1 byte
  eventThread = "main" (javaThreadId = 1)
}

JFRDemo$HelloWorldEvent {
  startTime = 09:10:05.810
  message = "Hello, World!"
  eventThread = "main" (javaThreadId = 1)
}

jdk.ThreadEnd {
  startTime = 09:10:05.810
  thread = "main" (javaThreadId = 1)
  eventThread = "main" (javaThreadId = 1)
}

jdk.ThreadStart {
  startTime = 09:10:05.810
  thread = "DestroyJavaVM" (javaThreadId = 33)
  parentThread = N/A
  eventThread = "DestroyJavaVM" (javaThreadId = 33)
}

jdk.ThreadStart {
  startTime = 09:10:05.810
  thread = "JFR Shutdown Hook" (javaThreadId = 32)
  parentThread = "DestroyJavaVM" (javaThreadId = 33)
  eventThread = "JFR Shutdown Hook" (javaThreadId = 32)
}

jdk.JavaThreadStatistics {
  startTime = 09:10:05.810
  activeCount = 6
  daemonCount = 4
  accumulatedCount = 7
  peakCount = 6
}

jdk.PhysicalMemory {
  startTime = 09:10:05.810
  totalSize = 3.7 GB
  usedSize = 0 bytes
}

jdk.ClassLoadingStatistics {
  startTime = 09:10:05.810
  loadedClassCount = 3768
  unloadedClassCount = 0
}

jdk.JVMInformation {
  startTime = 09:10:05.811
  jvmName = "Substrate VM"
  jvmVersion = "GraalVM 22.2.0 Java 17 CE"
  jvmArguments = "-XX:+FlightRecorder -XX:StartFlightRecording=filename=recording.jfr"
  jvmFlags = ""
  javaArguments = "JFRDemo"
  jvmStartTime = 09:10:05.793
  pid = 12321
}

jdk.OSInformation {
  startTime = 09:10:05.811
  osVersion = "Linux (5.10.102.1-microsoft-standard-WSL2) arch:amd64"
}

jdk.InitialEnvironmentVariable {
  startTime = 09:10:05.811
  key = "PATH"
  value = "/home/kogakz/gitouhon2022-2nd/graalvm-ce-java17-22.2.0/bin:/home/kogakz/.vscode-server/bin/d045a5eda657f4d7b676dedbfa7aab8207f8a075/bin/remote-cli:/usr/local/prince12/bin:/usr/local/sbin:/usr/local/bin:/usr/sbin:/usr/bin:/sbin:/bin:/usr/games:/usr/local/games:/usr/lib/wsl/lib:/mnt/c/Program Files/Eclipse Adoptium/jdk-17.0.3.7-hotspot/bin:/mnt/c/windows/system32:/mnt/c/windows:/mnt/c/windows/System32/Wbem:/mnt/c/windows/System32/WindowsPowerShell/v1.0/:/mnt/c/windows/System32/OpenSSH/:/mnt/c/Program Files (x86)/NVIDIA Corporation/PhysX/Common:/mnt/c/Program Files/NVIDIA Corporation/NVIDIA NvDLISR:/mnt/c/Program Files/Microsoft VS Code/bin:/mnt/c/Program Files/Git/cmd:/mnt/c/Users/kogak/AppData/Local/Microsoft/WindowsApps:/mnt/c/Program Files (x86)/EaseUS/EaseUS Partition Master Suite/ToolKits/EaseUS Todo Backup/bin/x64/:/snap/bin"
}

jdk.InitialEnvironmentVariable {
  startTime = 09:10:05.811
  key = "LESSCLOSE"
  value = "/usr/bin/lesspipe %s %s"
}

jdk.InitialEnvironmentVariable {
  startTime = 09:10:05.811
  key = "XDG_DATA_DIRS"
  value = "/usr/local/share:/usr/share:/var/lib/snapd/desktop"
}

jdk.InitialEnvironmentVariable {
  startTime = 09:10:05.811
  key = "JAVA_HOME"
  value = "/home/kogakz/gitouhon2022-2nd/graalvm-ce-java17-22.2.0"
}

jdk.InitialEnvironmentVariable {
  startTime = 09:10:05.811
  key = "DD_APP_KEY"
  value = "fe1e736b6bc2c001c55600d96375181763524456"
}

jdk.InitialEnvironmentVariable {
  startTime = 09:10:05.811
  key = "TERM"
  value = "xterm-256color"
}

jdk.InitialEnvironmentVariable {
  startTime = 09:10:05.811
  key = "MOTD_SHOWN"
  value = "update-motd"
}

jdk.InitialEnvironmentVariable {
  startTime = 09:10:05.811
  key = "LANG"
  value = "C.UTF-8"
}

jdk.InitialEnvironmentVariable {
  startTime = 09:10:05.811
  key = "VSCODE_GIT_IPC_HANDLE"
  value = "/mnt/wslg/runtime-dir/vscode-git-e84ceda338.sock"
}

jdk.InitialEnvironmentVariable {
  startTime = 09:10:05.811
  key = "VSCODE_GIT_ASKPASS_MAIN"
  value = "/home/kogakz/.vscode-server/bin/d045a5eda657f4d7b676dedbfa7aab8207f8a075/extensions/git/dist/askpass-main.js"
}

jdk.InitialEnvironmentVariable {
  startTime = 09:10:05.811
  key = "DISPLAY"
  value = ":0"
}

jdk.InitialEnvironmentVariable {
  startTime = 09:10:05.811
  key = "DD_API_KEY"
  value = "481acd184784d9e71540b00af2e7ba50"
}

jdk.InitialEnvironmentVariable {
  startTime = 09:10:05.811
  key = "WAYLAND_DISPLAY"
  value = "wayland-0"
}

jdk.InitialEnvironmentVariable {
  startTime = 09:10:05.811
  key = "COLORTERM"
  value = "truecolor"
}

jdk.InitialEnvironmentVariable {
  startTime = 09:10:05.811
  key = "VSCODE_IPC_HOOK_CLI"
  value = "/mnt/wslg/runtime-dir/vscode-ipc-fb7282ea-fd59-4bea-9b12-910a82c1a968.sock"
}

jdk.InitialEnvironmentVariable {
  startTime = 09:10:05.811
  key = "VSCODE_GIT_ASKPASS_EXTRA_ARGS"
  value = ""
}

jdk.InitialEnvironmentVariable {
  startTime = 09:10:05.811
  key = "LOGNAME"
  value = "kogakz"
}

jdk.InitialEnvironmentVariable {
  startTime = 09:10:05.811
  key = "VSCODE_GIT_ASKPASS_NODE"
  value = "/home/kogakz/.vscode-server/bin/d045a5eda657f4d7b676dedbfa7aab8207f8a075/node"
}

jdk.InitialEnvironmentVariable {
  startTime = 09:10:05.811
  key = "PWD"
  value = "/home/kogakz/gitouhon2022-2nd/userEvent"
}

jdk.InitialEnvironmentVariable {
  startTime = 09:10:05.811
  key = "TERM_PROGRAM_VERSION"
  value = "1.72.2"
}

jdk.InitialEnvironmentVariable {
  startTime = 09:10:05.811
  key = "GIT_ASKPASS"
  value = "/home/kogakz/.vscode-server/bin/d045a5eda657f4d7b676dedbfa7aab8207f8a075/extensions/git/dist/askpass.sh"
}

jdk.InitialEnvironmentVariable {
  startTime = 09:10:05.811
  key = "_"
  value = "./jfrdemo"
}

jdk.InitialEnvironmentVariable {
  startTime = 09:10:05.811
  key = "LESSOPEN"
  value = "| /usr/bin/lesspipe %s"
}

jdk.InitialEnvironmentVariable {
  startTime = 09:10:05.811
  key = "SHELL"
  value = "/bin/bash"
}

jdk.InitialEnvironmentVariable {
  startTime = 09:10:05.811
  key = "WSL_INTEROP"
  value = "/run/WSL/32636_interop"
}

jdk.InitialEnvironmentVariable {
  startTime = 09:10:05.811
  key = "WSL_DISTRO_NAME"
  value = "Ubuntu"
}

jdk.InitialEnvironmentVariable {
  startTime = 09:10:05.811
  key = "TERM_PROGRAM"
  value = "vscode"
}

jdk.InitialEnvironmentVariable {
  startTime = 09:10:05.811
  key = "HOSTTYPE"
  value = "x86_64"
}

jdk.InitialEnvironmentVariable {
  startTime = 09:10:05.811
  key = "OLDPWD"
  value = "/home/kogakz/gitouhon2022-2nd"
}

jdk.InitialEnvironmentVariable {
  startTime = 09:10:05.811
  key = "USER"
  value = "kogakz"
}

jdk.InitialEnvironmentVariable {
  startTime = 09:10:05.811
  key = "PULSE_SERVER"
  value = "/mnt/wslg/PulseServer"
}

jdk.InitialEnvironmentVariable {
  startTime = 09:10:05.811
  key = "NAME"
  value = "koga_hp"
}

jdk.InitialEnvironmentVariable {
  startTime = 09:10:05.811
  key = "WSLENV"
  value = "VSCODE_WSL_EXT_LOCATION/up"
}

jdk.InitialEnvironmentVariable {
  startTime = 09:10:05.811
  key = "XDG_RUNTIME_DIR"
  value = "/mnt/wslg/runtime-dir"
}

jdk.InitialEnvironmentVariable {
  startTime = 09:10:05.811
  key = "LS_COLORS"
  value = "rs=0:di=01;34:ln=01;36:mh=00:pi=40;33:so=01;35:do=01;35:bd=40;33;01:cd=40;33;01:or=40;31;01:mi=00:su=37;41:sg=30;43:ca=30;41:tw=30;42:ow=34;42:st=37;44:ex=01;32:*.tar=01;31:*.tgz=01;31:*.arc=01;31:*.arj=01;31:*.taz=01;31:*.lha=01;31:*.lz4=01;31:*.lzh=01;31:*.lzma=01;31:*.tlz=01;31:*.txz=01;31:*.tzo=01;31:*.t7z=01;31:*.zip=01;31:*.z=01;31:*.dz=01;31:*.gz=01;31:*.lrz=01;31:*.lz=01;31:*.lzo=01;31:*.xz=01;31:*.zst=01;31:*.tzst=01;31:*.bz2=01;31:*.bz=01;31:*.tbz=01;31:*.tbz2=01;31:*.tz=01;31:*.deb=01;31:*.rpm=01;31:*.jar=01;31:*.war=01;31:*.ear=01;31:*.sar=01;31:*.rar=01;31:*.alz=01;31:*.ace=01;31:*.zoo=01;31:*.cpio=01;31:*.7z=01;31:*.rz=01;31:*.cab=01;31:*.wim=01;31:*.swm=01;31:*.dwm=01;31:*.esd=01;31:*.jpg=01;35:*.jpeg=01;35:*.mjpg=01;35:*.mjpeg=01;35:*.gif=01;35:*.bmp=01;35:*.pbm=01;35:*.pgm=01;35:*.ppm=01;35:*.tga=01;35:*.xbm=01;35:*.xpm=01;35:*.tif=01;35:*.tiff=01;35:*.png=01;35:*.svg=01;35:*.svgz=01;35:*.mng=01;35:*.pcx=01;35:*.mov=01;35:*.mpg=01;35:*.mpeg=01;35:*.m2v=01;35:*.mkv=01;35:*.webm=01;35:*.ogm=01;35:*.mp4=01;35:*.m4v=01;35:*.mp4v=01;35:*.vob=01;35:*.qt=01;35:*.nuv=01;35:*.wmv=01;35:*.asf=01;35:*.rm=01;35:*.rmvb=01;35:*.flc=01;35:*.avi=01;35:*.fli=01;35:*.flv=01;35:*.gl=01;35:*.dl=01;35:*.xcf=01;35:*.xwd=01;35:*.yuv=01;35:*.cgm=01;35:*.emf=01;35:*.ogv=01;35:*.ogx=01;35:*.aac=00;36:*.au=00;36:*.flac=00;36:*.m4a=00;36:*.mid=00;36:*.midi=00;36:*.mka=00;36:*.mp3=00;36:*.mpc=00;36:*.ogg=00;36:*.ra=00;36:*.wav=00;36:*.oga=00;36:*.opus=00;36:*.spx=00;36:*.xspf=00;36:"
}

jdk.InitialEnvironmentVariable {
  startTime = 09:10:05.811
  key = "SHLVL"
  value = "1"
}

jdk.InitialEnvironmentVariable {
  startTime = 09:10:05.811
  key = "HOME"
  value = "/home/kogakz"
}

jdk.InitialSystemProperty {
  startTime = 09:10:05.811
  key = "java.specification.version"
  value = "17"
}

jdk.InitialSystemProperty {
  startTime = 09:10:05.811
  key = "org.graalvm.nativeimage.kind"
  value = "executable"
}

jdk.InitialSystemProperty {
  startTime = 09:10:05.811
  key = "sun.jnu.encoding"
  value = "UTF-8"
}

jdk.InitialSystemProperty {
  startTime = 09:10:05.811
  key = "java.class.path"
  value = ""
}

jdk.InitialSystemProperty {
  startTime = 09:10:05.811
  key = "user.name"
  value = "kogakz"
}

jdk.InitialSystemProperty {
  startTime = 09:10:05.811
  key = "path.separator"
  value = ":"
}

jdk.InitialSystemProperty {
  startTime = 09:10:05.811
  key = "java.vm.vendor"
  value = "Oracle Corporation"
}

jdk.InitialSystemProperty {
  startTime = 09:10:05.811
  key = "sun.arch.data.model"
  value = "64"
}

jdk.InitialSystemProperty {
  startTime = 09:10:05.811
  key = "os.version"
  value = "5.10.102.1-microsoft-standard-WSL2"
}

jdk.InitialSystemProperty {
  startTime = 09:10:05.811
  key = "java.endorsed.dirs"
  value = ""
}

jdk.InitialSystemProperty {
  startTime = 09:10:05.811
  key = "file.encoding"
  value = "UTF-8"
}

jdk.InitialSystemProperty {
  startTime = 09:10:05.811
  key = "java.vendor.url"
  value = "https://www.graalvm.org/"
}

jdk.InitialSystemProperty {
  startTime = 09:10:05.811
  key = "user.timezone"
  value = "Asia/Tokyo"
}

jdk.InitialSystemProperty {
  startTime = 09:10:05.811
  key = "java.vm.name"
  value = "Substrate VM"
}

jdk.InitialSystemProperty {
  startTime = 09:10:05.811
  key = "java.vm.specification.version"
  value = "17"
}

jdk.InitialSystemProperty {
  startTime = 09:10:05.811
  key = "os.name"
  value = "Linux"
}

jdk.InitialSystemProperty {
  startTime = 09:10:05.811
  key = "jdk.lang.Process.launchMechanism"
  value = "FORK"
}

jdk.InitialSystemProperty {
  startTime = 09:10:05.811
  key = "java.io.tmpdir"
  value = "/tmp"
}

jdk.InitialSystemProperty {
  startTime = 09:10:05.811
  key = "java.version"
  value = "17.0.4"
}

jdk.InitialSystemProperty {
  startTime = 09:10:05.811
  key = "user.dir"
  value = "/home/kogakz/gitouhon2022-2nd/userEvent"
}

jdk.InitialSystemProperty {
  startTime = 09:10:05.811
  key = "user.home"
  value = "/home/kogakz"
}

jdk.InitialSystemProperty {
  startTime = 09:10:05.811
  key = "os.arch"
  value = "amd64"
}

jdk.InitialSystemProperty {
  startTime = 09:10:05.811
  key = "java.specification.vendor"
  value = "Oracle Corporation"
}

jdk.InitialSystemProperty {
  startTime = 09:10:05.811
  key = "java.vm.specification.name"
  value = "Java Virtual Machine Specification"
}

jdk.InitialSystemProperty {
  startTime = 09:10:05.811
  key = "org.graalvm.nativeimage.imagecode"
  value = "runtime"
}

jdk.InitialSystemProperty {
  startTime = 09:10:05.811
  key = "file.separator"
  value = "/"
}

jdk.InitialSystemProperty {
  startTime = 09:10:05.811
  key = "line.separator"
  value = "
"
}

jdk.InitialSystemProperty {
  startTime = 09:10:05.811
  key = "java.library.path"
  value = "/usr/lib64:/lib64:/lib:/usr/lib"
}

jdk.InitialSystemProperty {
  startTime = 09:10:05.811
  key = "java.vendor"
  value = "Oracle Corporation"
}

jdk.InitialSystemProperty {
  startTime = 09:10:05.811
  key = "java.vm.specification.vendor"
  value = "Oracle Corporation"
}

jdk.InitialSystemProperty {
  startTime = 09:10:05.811
  key = "java.specification.name"
  value = "Java Platform API Specification"
}

jdk.InitialSystemProperty {
  startTime = 09:10:05.811
  key = "jdk.jfr.repository"
  value = "/tmp/2022_10_23_09_10_05_12321"
}

jdk.InitialSystemProperty {
  startTime = 09:10:05.811
  key = "java.vm.version"
  value = "GraalVM 22.2.0 Java 17 CE"
}

jdk.InitialSystemProperty {
  startTime = 09:10:05.811
  key = "java.ext.dirs"
  value = ""
}

jdk.InitialSystemProperty {
  startTime = 09:10:05.811
  key = "java.class.version"
  value = "61.0"
}

jdk.SafepointBegin {
  startTime = 09:10:05.811
  duration = 0.00133 ms
  safepointId = 2
  totalThreadCount = 6
  jniCriticalThreadCount = 0
  eventThread = "JFR Shutdown Hook" (javaThreadId = 32)
}

